%YAML 1.1
%TAG !u! tag:unity3d.com,2011:
--- !u!114 &11400000
MonoBehaviour:
  m_ObjectHideFlags: 0
  m_PrefabParentObject: {fileID: 0}
  m_PrefabInternal: {fileID: 0}
  m_GameObject: {fileID: 0}
  m_Enabled: 1
  m_EditorHideFlags: 0
  m_Script: {fileID: 11500000, guid: 7d86f7dc89b3e33408563e4ada9d1c74, type: 3}
  m_Name: Alt2BuildingTextureModifier
  m_EditorClassIdentifier: 
  Active: 0
  _textureTop: 0
  _useSatelliteTexture: 0
  _topMaterials:
  - {fileID: 2100000, guid: caa6c6f6f7879034992a27a6bc3794fd, type: 2}
  _textureSides: 1
  _sideMaterials:
  - {fileID: 2100000, guid: caa6c6f6f7879034992a27a6bc3794fd, type: 2}
