%YAML 1.1
%TAG !u! tag:unity3d.com,2011:
--- !u!114 &11400000
MonoBehaviour:
  m_ObjectHideFlags: 0
  m_PrefabParentObject: {fileID: 0}
  m_PrefabInternal: {fileID: 0}
  m_GameObject: {fileID: 0}
  m_Enabled: 1
  m_EditorHideFlags: 0
  m_Script: {fileID: 11500000, guid: 63d97cb1cfb3f1b499c24763afa54873, type: 3}
  m_Name: StylingDemoMeshFactory
  m_EditorClassIdentifier: 
  _mapId: mapbox.mapbox-streets-v7
  Visualizers:
  - {fileID: 11400000, guid: c373e27f08ab6fd4e9d288f394bb6fd8, type: 2}
  - {fileID: 11400000, guid: 69e43c5ee5f5f6b46a12bf3f1ba27039, type: 2}
