mtllib materials.mtl
v -0.09507072 -0.03969753 0.07194637
v -0.1062787 -0.04773474 0.04530457
v 0.05462411 0.04512572 -0.05039933
v 0.06583205 0.05316293 -0.02375755
v -0.07955161 -0.06534314 0.0731543
v 0.08135116 0.02751732 -0.0225496
v 0.07014319 0.01948011 -0.04919142
v -0.09075952 -0.07338035 0.0465125
v 0.02747035 -0.06272197 0.02531955
v 0.02027237 -0.06801021 -0.003320009
v -0.01296037 -0.004144192 -0.006760448
v -0.005762428 0.001144052 0.02187911
v 0.05309963 -0.04986072 0.0165033
v 0.01986688 0.0140053 0.01306286
v 0.01266891 0.00871706 -0.01557669
v 0.04590169 -0.05514896 -0.01213625
v -0.03826284 -0.02099776 0.0328317
v -0.04825637 -0.02708781 0.005208492
v -0.0614205 0.04531813 -0.005992234
v -0.05142701 0.05140817 0.02163097
v -0.01047826 -0.01761651 0.02203435
v -0.02364239 0.05478942 0.01083362
v -0.03363591 0.04869938 -0.01678959
v -0.02047175 -0.02370656 -0.005588859
v 0.04250872 0.1056575 0.03477579
v 0.01758763 0.09101593 0.02674048
v 0.04450241 0.06993461 -0.0183208
v 0.06942347 0.08457601 -0.01028547
v 0.05117819 0.08198023 0.05103105
v 0.07809296 0.0608989 0.005969793
v 0.05317187 0.04625738 -0.002065539
v 0.02625713 0.06733882 0.04299574
v 0.06952381 0.02300775 -0.0808301
v 0.04147321 0.01697838 -0.07206592
v 0.05986184 0.04590476 0.006688833
v 0.08791244 0.05193412 -0.002075344
v 0.06104374 0.05060422 -0.08898616
v 0.07943237 0.0795306 -0.01023141
v 0.05138177 0.07350123 -0.001467228
v 0.03299314 0.04457486 -0.08022198
v 0.05443528 0.05126882 -0.09328759
v 0.04005361 0.0543071 -0.06713542
v -0.009409487 0.04645526 -0.09342417
v 0.00497219 0.04341698 -0.1195763
v 0.0566535 0.02171504 -0.08863428
v 0.007190406 0.01386321 -0.114923
v -0.007191271 0.01690149 -0.08877087
v 0.04227182 0.02475333 -0.06248212
v -0.004248768 0.0490973 0.01915172
v -0.06299287 0.03855407 0.03716566
v -0.07039639 0.07158518 0.03235495
v -0.01165229 0.08212841 0.014341
v -0.02347901 0.03440118 -0.0521602
v -0.03088254 0.06743228 -0.05697089
v -0.08962667 0.05688906 -0.03895697
v -0.08222312 0.02385795 -0.03414625
v -0.09806263 -0.03811884 0.07665052
v -0.1275544 -0.02416217 0.08159073
v -0.1273924 -0.01510763 0.07534692
v -0.09298527 -0.03139055 0.06958336
v -0.128958 -0.01021361 0.065621
v -0.09095269 -0.02819943 0.05925468
v -0.131832 -0.01079154 0.05501901
v -0.09250963 -0.02940059 0.04843208
v -0.1352441 -0.01668656 0.04638174
v -0.09723878 -0.03467238 0.04001543
v -0.1382801 -0.02631903 0.04202355
v -0.103873 -0.04260194 0.03625998
v -0.1401265 -0.03710806 0.04311222
v -0.1106347 -0.05106473 0.03817201
v -0.1402886 -0.04616261 0.04935601
v -0.1157121 -0.05779314 0.04523918
v -0.1387229 -0.0510565 0.05908194
v -0.1177446 -0.06098425 0.05556785
v -0.1358489 -0.05047858 0.06968392
v -0.1161878 -0.0597831 0.06639045
v -0.1324368 -0.04458356 0.07832119
v -0.1114586 -0.05451131 0.07480711
v -0.1294008 -0.03495109 0.08267938
v -0.1048243 -0.04658175 0.07856254
v -0.1586607 -0.02615643 0.09242509
v -0.163683 -0.01743436 0.08798702
v -0.169044 -0.01278377 0.07958299
v -0.1733071 -0.01345074 0.06946485
v -0.17533 -0.01925671 0.06034374
v -0.1745708 -0.02864575 0.05466366
v -0.1712328 -0.03910232 0.05394658
v -0.1662105 -0.0478245 0.05838466
v -0.1608496 -0.05247509 0.0667887
v -0.1565865 -0.05180812 0.07690684
v -0.1545635 -0.04600215 0.08602795
v -0.1553227 -0.03661299 0.09170803
v -0.1830466 -0.04356754 0.1062506
v -0.1921332 -0.03774726 0.1041168
v -0.2004694 -0.03522098 0.09739956
v -0.2058216 -0.03666556 0.08789884
v -0.2067555 -0.04169393 0.0781603
v -0.203021 -0.04895878 0.07079341
v -0.1956187 -0.05651343 0.06777209
v -0.1865321 -0.0623337 0.06990591
v -0.1781958 -0.06486011 0.07662311
v -0.1728437 -0.06341553 0.08612384
v -0.1719098 -0.05838716 0.09586237
v -0.1756443 -0.05112231 0.1032293
v -0.1941779 -0.07173014 0.1193627
v -0.2051197 -0.07060361 0.1194142
v -0.2148141 -0.07151341 0.1142968
v -0.2206633 -0.07421565 0.1053816
v -0.2211001 -0.07798636 0.09505752
v -0.2160075 -0.08181512 0.08609083
v -0.20675 -0.08467603 0.08088417
v -0.1958082 -0.08580256 0.08083265
v -0.1861138 -0.08489275 0.08595006
v -0.1802646 -0.08219051 0.09486523
v -0.1798277 -0.0784198 0.1051893
v -0.1849204 -0.07459104 0.114156
v -0.189072 -0.103098 0.128248
v -0.1991628 -0.1071994 0.1297804
v -0.2082343 -0.1119363 0.125747
v -0.2138554 -0.1160394 0.1172287
v -0.2145203 -0.1184093 0.1065078
v -0.2100506 -0.1184109 0.096457
v -0.2016441 -0.1160439 0.08976947
v -0.1915532 -0.1119424 0.08823706
v -0.1824819 -0.1072055 0.0922704
v -0.1768606 -0.1031024 0.1007888
v -0.1761958 -0.1007326 0.1115097
v -0.1806655 -0.100731 0.1215604
v -0.169097 -0.1292663 0.1305257
v -0.1758587 -0.137729 0.1324377
v -0.182493 -0.1456586 0.1286823
v -0.1872221 -0.1509304 0.1202656
v -0.188779 -0.1521316 0.109443
v -0.1867465 -0.1489404 0.09911433
v -0.1816691 -0.1422122 0.09204717
v -0.1749074 -0.1337492 0.09013514
v -0.1682732 -0.1258197 0.09389058
v -0.163544 -0.1205479 0.1023072
v -0.1619871 -0.1193467 0.1131298
v -0.1640196 -0.1225379 0.1234585
v -0.1396052 -0.1432229 0.1255855
v -0.1414516 -0.154012 0.1266741
v -0.1444876 -0.1636444 0.1223159
v -0.1478997 -0.1695395 0.1136787
v -0.1507737 -0.1701174 0.1030767
v -0.1523394 -0.1652234 0.09335077
v -0.1521773 -0.1561688 0.08710696
v -0.150331 -0.1453799 0.08601831
v -0.1472949 -0.1357474 0.0903765
v -0.1438828 -0.1298524 0.09901376
v -0.1410089 -0.1292745 0.1096157
v -0.1394432 -0.1341685 0.1193417
v -0.1084989 -0.1412287 0.1147511
v -0.105161 -0.1516851 0.114034
v -0.1044018 -0.1610743 0.1083539
v -0.1064247 -0.1668802 0.09923284
v -0.1106878 -0.1675472 0.0891147
v -0.1160488 -0.1628966 0.08071065
v -0.121071 -0.1541746 0.07627259
v -0.124409 -0.143718 0.07698967
v -0.1251683 -0.1343288 0.08266973
v -0.1231453 -0.1285229 0.09179084
v -0.1188822 -0.1278559 0.101909
v -0.1135213 -0.1325065 0.110313
v -0.08411306 -0.1238176 0.1009256
v -0.07671076 -0.1313722 0.09790428
v -0.07297626 -0.1386371 0.09053738
v -0.07391021 -0.1436654 0.08079885
v -0.07926232 -0.14511 0.07129812
v -0.08759856 -0.1425837 0.06458092
v -0.09668517 -0.1367635 0.06244709
v -0.1040875 -0.1292087 0.06546842
v -0.1078219 -0.1219438 0.07283531
v -0.1068881 -0.1169155 0.08257385
v -0.1015359 -0.1154709 0.09207457
v -0.09319967 -0.1179973 0.09879178
v -0.07298175 -0.09565496 0.08781353
v -0.06372425 -0.09851587 0.08260685
v -0.05863163 -0.1023448 0.07364017
v -0.05906847 -0.1061153 0.06331608
v -0.06491768 -0.1088177 0.05440091
v -0.07461202 -0.1097274 0.04928349
v -0.08555388 -0.1086009 0.04933502
v -0.09481138 -0.10574 0.05454168
v -0.099904 -0.1019112 0.06350836
v -0.09946716 -0.09814048 0.07383245
v -0.09361792 -0.09543824 0.08274762
v -0.08392361 -0.09452844 0.08786505
v -0.07808766 -0.06428707 0.07892822
v -0.06968114 -0.06192005 0.07224067
v -0.06521147 -0.06192172 0.06218989
v -0.06587631 -0.06429148 0.051469
v -0.07149753 -0.06839466 0.04295065
v -0.08056891 -0.07313156 0.0389173
v -0.0906598 -0.07723296 0.04044971
v -0.09906632 -0.07959998 0.04713726
v -0.103536 -0.07959843 0.05718803
v -0.1028711 -0.07722855 0.06790893
v -0.09724987 -0.07312548 0.07642728
v -0.08817852 -0.06838858 0.08046062
v 0.1354437 -0.05594122 0.01144397
v 0.109028 -0.03620625 0.01013836
v 0.1119194 -0.0281986 0.003173083
v 0.1427377 -0.0512228 0.004696339
v 0.112781 -0.02435863 -0.007098585
v 0.1468223 -0.04979062 -0.005416065
v 0.1113822 -0.02571511 -0.01792446
v 0.1466031 -0.05202842 -0.01618358
v 0.1080976 -0.0319047 -0.02640367
v 0.1421389 -0.05733669 -0.02472112
v 0.1038074 -0.04126871 -0.03026426
v 0.1346258 -0.06429291 -0.028741
v 0.0996612 -0.05129826 -0.02847177
v 0.1260769 -0.07103324 -0.02716613
v 0.09676987 -0.05930591 -0.02150652
v 0.1187829 -0.07575166 -0.02041849
v 0.09590819 -0.06314588 -0.01123482
v 0.1146983 -0.07718384 -0.01030609
v 0.09730703 -0.06178939 -0.0004089773
v 0.1149175 -0.07494605 0.0004614294
v 0.1005916 -0.05559981 0.00807023
v 0.1193817 -0.06963778 0.00899896
v 0.1048818 -0.04623568 0.01193082
v 0.1268949 -0.06268156 0.01301885
v 0.0769552 -0.03097034 0.0158726
v 0.07450107 -0.02209008 0.009863049
v 0.07144961 -0.01761127 0.0002909601
v 0.06861845 -0.01873398 -0.01027879
v 0.06676617 -0.02515733 -0.01901409
v 0.06638917 -0.03516018 -0.02357432
v 0.06758839 -0.04606235 -0.02273753
v 0.07004252 -0.05494261 -0.01672798
v 0.07309398 -0.05942142 -0.007155925
v 0.07592514 -0.05829871 0.003413856
v 0.07777739 -0.05187535 0.01214913
v 0.07815441 -0.0418725 0.01670936
v 0.04781914 -0.04163647 0.02711022
v 0.04050899 -0.03453398 0.02297363
v 0.03390265 -0.03135645 0.01477262
v 0.02977031 -0.03295541 0.004704714
v 0.02921924 -0.03890252 -0.004532427
v 0.03239706 -0.04760408 -0.01046374
v 0.0384523 -0.05672848 -0.01149991
v 0.04576245 -0.06383109 -0.00736329
v 0.05236876 -0.0670085 0.0008376837
v 0.05650109 -0.06540954 0.01090559
v 0.05705217 -0.05946243 0.02014276
v 0.05387434 -0.05076098 0.02607405
v 0.02942675 -0.0653466 0.04084015
v 0.01905122 -0.06219578 0.03899185
v 0.01020089 -0.06191123 0.03246604
v 0.005247176 -0.064569 0.02301127
v 0.005517483 -0.06945717 0.01316097
v 0.01093933 -0.07526588 0.005554497
v 0.02005994 -0.08043873 0.002230018
v 0.0304355 -0.08358955 0.004078299
v 0.03928584 -0.08387423 0.01060411
v 0.04423952 -0.08121634 0.02005887
v 0.04396924 -0.07632816 0.02990918
v 0.0385474 -0.07051945 0.03751566
v 0.02670637 -0.09574771 0.05338341
v 0.01587743 -0.09766376 0.05362567
v 0.006695181 -0.1010883 0.04863024
v 0.001619995 -0.1051039 0.03973565
v 0.002011776 -0.1086344 0.02932517
v 0.007765532 -0.1107339 0.02018833
v 0.01733953 -0.1108398 0.01477328
v 0.0281685 -0.1089238 0.01453102
v 0.03735074 -0.1054993 0.01952645
v 0.04242593 -0.1014837 0.02842106
v 0.04203415 -0.0979532 0.03883152
v 0.03628039 -0.09585369 0.04796839
v 0.04038686 -0.1246939 0.06137909
v 0.03183797 -0.1314342 0.06295396
v 0.02432486 -0.1383904 0.05893406
v 0.01986063 -0.1436987 0.05039655
v 0.01964146 -0.1459365 0.03962901
v 0.02372608 -0.1445043 0.02951661
v 0.03102002 -0.1397859 0.02276897
v 0.0395689 -0.1330456 0.0211941
v 0.04708201 -0.1260893 0.02521399
v 0.05154625 -0.1207811 0.0337515
v 0.05176541 -0.1185433 0.04451904
v 0.0476808 -0.1199754 0.05463144
v 0.06680253 -0.1444288 0.06268473
v 0.06265628 -0.1544584 0.06447721
v 0.05836609 -0.1638224 0.06061661
v 0.05508155 -0.170012 0.05213739
v 0.05368268 -0.1713685 0.04131155
v 0.05454439 -0.1675285 0.03103985
v 0.05743572 -0.1595209 0.02407458
v 0.06158197 -0.1494913 0.02228212
v 0.06587213 -0.1401273 0.02614272
v 0.06915671 -0.1339377 0.03462194
v 0.07055557 -0.1325812 0.04544777
v 0.06969386 -0.1364212 0.05571948
v 0.09887534 -0.1496648 0.05695048
v 0.1000746 -0.1605669 0.05778725
v 0.09969753 -0.1705698 0.05322704
v 0.09784529 -0.1769931 0.04449174
v 0.09501413 -0.1781158 0.03392197
v 0.09196267 -0.173637 0.0243499
v 0.08950853 -0.1647568 0.01834035
v 0.08830932 -0.1538546 0.01750359
v 0.08868635 -0.1438518 0.02206382
v 0.09053859 -0.1374284 0.03079911
v 0.09336975 -0.1363057 0.04136887
v 0.09642121 -0.1407845 0.05094095
v 0.1280114 -0.1389986 0.04571284
v 0.1340667 -0.148123 0.04467668
v 0.1372445 -0.1568246 0.03874537
v 0.1366934 -0.1627717 0.02950822
v 0.1325611 -0.1643707 0.01944032
v 0.1259547 -0.1611933 0.01123932
v 0.1186446 -0.1540906 0.007102728
v 0.1125894 -0.1449661 0.008138895
v 0.1094115 -0.1362647 0.01407018
v 0.1099626 -0.1303176 0.02330735
v 0.114095 -0.1287186 0.03337526
v 0.1207013 -0.131896 0.04157625
v 0.1464038 -0.1152884 0.03198293
v 0.1555244 -0.1204612 0.02865845
v 0.1609462 -0.1262699 0.02105197
v 0.1612165 -0.1311581 0.01120168
v 0.1562628 -0.1338159 0.001746923
v 0.1474125 -0.1335313 -0.004778892
v 0.1370369 -0.1303805 -0.006627202
v 0.1279163 -0.1252077 -0.003302693
v 0.1224945 -0.119399 0.004303783
v 0.1222242 -0.1145108 0.01415408
v 0.1271779 -0.111853 0.02360883
v 0.1360282 -0.1121376 0.03013465
v 0.1491242 -0.08488727 0.01943964
v 0.1586982 -0.08499324 0.01402462
v 0.164452 -0.08709276 0.00488776
v 0.1648437 -0.09062326 -0.005522698
v 0.1597686 -0.09463871 -0.01441729
v 0.1505863 -0.09806335 -0.01941273
v 0.1397574 -0.09997928 -0.01917046
v 0.1301833 -0.09987342 -0.01375544
v 0.1244296 -0.09777391 -0.004618585
v 0.1240378 -0.09424341 0.005791873
v 0.129113 -0.09022784 0.0146865
v 0.1382953 -0.08680332 0.0196819
vn -0.5173035 0.8548543 -0.04026436
vn 0.5173035 -0.8548543 0.04026436
vn -0.7699491 -0.4443541 0.4579607
vn 0.7699491 0.4443541 -0.4579607
vn 0.373598 0.2679062 0.8880602
vn -0.373598 -0.2679062 -0.8880602
vn -0.85431 -0.4287101 0.2938742
vn 0.85431 0.4287101 -0.2938742
vn 0.4610717 -0.8860782 0.04773249
vn -0.4610717 0.8860782 -0.04773249
vn 0.2399321 0.1762754 0.9546516
vn -0.2399321 -0.1762754 -0.9546516
vn -0.9261534 -0.1127084 0.3599122
vn 0.9261534 0.1127084 -0.3599122
vn 0.1768418 -0.97267 0.1504659
vn -0.1768418 0.97267 -0.1504659
vn 0.3331171 0.203002 0.9207731
vn -0.3331171 -0.203002 -0.9207731
vn -0.2889825 0.7892379 -0.541842
vn 0.2889825 -0.7892379 0.541842
vn -0.4758388 0.3727072 0.7966598
vn 0.4758388 -0.3727072 -0.7966598
vn 0.8307024 0.4880501 0.2678442
vn -0.8307024 -0.4880501 -0.2678442
vn 0.2826687 -0.9198836 0.2718687
vn -0.2826687 0.9198836 -0.2718687
vn -0.2140938 -0.3367811 -0.9169201
vn 0.2140938 0.3367811 0.9169201
vn 0.93502 0.2009794 -0.2921388
vn -0.93502 -0.2009794 0.2921388
vn -0.07394055 0.9851262 -0.1551102
vn 0.07394055 -0.9851262 0.1551102
vn 0.8744818 0.1388151 0.4647709
vn -0.8744818 -0.1388151 -0.4647709
vn 0.4793896 -0.1012756 -0.871739
vn -0.4793896 0.1012756 0.871739
vn 0.2553576 0.1951499 0.9469472
vn -0.2553576 -0.1951499 -0.9469472
vn 0.2165359 -0.9660825 0.1407014
vn -0.2165359 0.9660825 -0.1407014
vn 0.942287 0.1691189 -0.2889534
vn -0.942287 -0.1691189 0.2889534
vn 0.2958147 0.3046091 0.9053767
vn 0.5347493 0.6212397 0.5728042
vn 0.6303982 0.7714096 0.08674908
vn 0.5571325 0.7148809 -0.4225503
vn 0.3345835 0.4668004 -0.8186277
vn 0.02238324 0.09364118 -0.9953544
vn -0.2958147 -0.3046091 -0.9053767
vn -0.5347493 -0.6212398 -0.5728039
vn -0.6303982 -0.7714096 -0.08674903
vn -0.5571325 -0.7148809 0.4225503
vn -0.3345836 -0.4668005 0.8186276
vn -0.02238306 -0.09364096 0.9953544
vn 0.2958147 0.3046091 0.9053767
vn 0.3034411 0.7307046 0.6115508
vn 0.2297608 0.9610083 0.1538603
vn 0.0945163 0.9338107 -0.345057
vn -0.06605385 0.6563992 -0.7515165
vn -0.2089248 0.2031061 -0.9566078
vn -0.2958147 -0.3046091 -0.9053767
vn -0.3034411 -0.7307048 -0.6115505
vn -0.2297608 -0.9610084 -0.1538602
vn -0.09451625 -0.9338107 0.3450569
vn 0.06605381 -0.6563993 0.7515164
vn 0.2089249 -0.2031058 0.9566078
vn 0.2958147 0.3046091 0.9053767
vn 0.05947024 0.7150626 0.6965263
vn -0.1928091 0.9339156 0.3010422
vn -0.3934255 0.9025266 -0.1751059
vn -0.4886239 0.6293064 -0.6043345
vn -0.4528957 0.1874641 -0.8716322
vn -0.2958147 -0.3046091 -0.9053767
vn -0.05947009 -0.7150627 -0.6965261
vn 0.1928091 -0.9339156 -0.3010421
vn 0.3934255 -0.9025267 0.1751059
vn 0.4886237 -0.6293066 0.6043345
vn 0.4528957 -0.1874638 0.8716323
vn 0.2958147 0.3046091 0.9053767
vn -0.1317916 0.5785049 0.8049615
vn -0.5240844 0.6973907 0.4888576
vn -0.7759492 0.6294113 0.04176461
vn -0.819899 0.3927816 -0.4165191
vn -0.6441576 0.0509064 -0.7631969
vn -0.2958147 -0.3046091 -0.9053767
vn 0.1317918 -0.578505 -0.8049614
vn 0.5240844 -0.6973908 -0.4888575
vn 0.7759492 -0.6294113 -0.04176464
vn 0.8198991 -0.3927817 0.4165191
vn 0.6441575 -0.0509062 0.7631971
vn 0.2958147 0.3046091 0.9053767
vn -0.219096 0.3576221 0.9078014
vn -0.6753 0.3148106 0.6669815
vn -0.9505579 0.1876458 0.2474443
vn -0.9711146 0.01020141 -0.2383953
vn -0.7314619 -0.1699764 -0.6603571
vn -0.2958147 -0.3046091 -0.9053767
vn 0.2190961 -0.3576221 -0.9078014
vn 0.6753 -0.3148106 -0.6669814
vn 0.9505579 -0.1876458 -0.2474443
vn 0.9711147 -0.01020146 0.2383952
vn 0.7314618 0.1699765 0.6603573
vn 0.2958147 0.3046091 0.9053767
vn -0.1790497 0.1115996 0.97749
vn -0.6059379 -0.111313 0.7876857
vn -0.8704655 -0.3043994 0.3868216
vn -0.9017525 -0.4159221 -0.1176911
vn -0.6914157 -0.4159989 -0.5906685
vn -0.2958147 -0.3046091 -0.9053767
vn 0.1790499 -0.1115996 -0.97749
vn 0.605938 0.111313 -0.7876856
vn 0.8704655 0.3043994 -0.3868216
vn 0.9017525 0.4159221 0.117691
vn 0.6914155 0.4159989 0.5906687
vn 0.2958147 0.3046091 0.9053767
vn -0.02238321 -0.09364121 0.9953544
vn -0.3345835 -0.4668005 0.8186277
vn -0.5571324 -0.7148809 0.4225502
vn -0.6303981 -0.7714096 -0.08674916
vn -0.5347492 -0.6212397 -0.5728042
vn -0.2958147 -0.3046091 -0.9053767
vn 0.02238338 0.09364142 -0.9953544
vn 0.3345836 0.4668006 -0.8186276
vn 0.5571324 0.7148809 -0.4225503
vn 0.6303982 0.7714096 0.08674903
vn 0.5347491 0.6212396 0.5728043
vn 0.2958147 0.3046091 0.9053767
vn 0.2089249 -0.2031062 0.9566077
vn 0.06605392 -0.6563993 0.7515164
vn -0.09451599 -0.9338108 0.3450568
vn -0.2297607 -0.9610084 -0.1538603
vn -0.303441 -0.7307047 -0.6115507
vn -0.2958147 -0.3046091 -0.9053767
vn -0.208925 0.2031063 -0.9566076
vn -0.0660539 0.6563993 -0.7515164
vn 0.09451599 0.9338108 -0.3450569
vn 0.2297607 0.9610084 0.1538602
vn 0.303441 0.7307045 0.611551
vn 0.2958147 0.3046091 0.9053767
vn 0.4528957 -0.1874641 0.8716322
vn 0.4886238 -0.6293064 0.6043345
vn 0.3934256 -0.9025266 0.1751058
vn 0.1928091 -0.9339155 -0.3010423
vn -0.05947024 -0.7150626 -0.6965263
vn -0.2958147 -0.3046091 -0.9053767
vn -0.4528959 0.1874643 -0.8716321
vn -0.4886238 0.6293065 -0.6043344
vn -0.3934256 0.9025266 -0.1751058
vn -0.1928092 0.9339156 0.3010422
vn 0.05947041 0.7150624 0.6965265
vn 0.2958147 0.3046091 0.9053767
vn 0.6441576 -0.05090642 0.7631969
vn 0.819899 -0.3927817 0.4165191
vn 0.7759492 -0.6294114 -0.04176468
vn 0.5240843 -0.6973908 -0.4888576
vn 0.1317916 -0.5785049 -0.8049615
vn -0.2958147 -0.3046091 -0.9053767
vn -0.6441577 0.0509066 -0.7631968
vn -0.8198991 0.3927817 -0.4165191
vn -0.7759492 0.6294114 0.04176465
vn -0.5240844 0.6973908 0.4888575
vn -0.1317914 0.5785048 0.8049617
vn 0.2958147 0.3046091 0.9053767
vn 0.7314619 0.1699764 0.6603571
vn 0.9711146 -0.01020153 0.2383953
vn 0.9505579 -0.1876459 -0.2474443
vn 0.6752999 -0.3148107 -0.6669815
vn 0.219096 -0.3576221 -0.9078014
vn -0.2958147 -0.3046091 -0.9053767
vn -0.7314621 -0.1699762 -0.6603569
vn -0.9711146 0.01020155 -0.2383952
vn -0.9505579 0.1876459 0.2474443
vn -0.6753 0.3148107 0.6669814
vn -0.2190957 0.3576221 0.9078014
vn 0.2958147 0.3046091 0.9053767
vn 0.6914157 0.4159991 0.5906685
vn 0.9017524 0.4159224 0.1176909
vn 0.8704654 0.3043995 -0.3868217
vn 0.6059377 0.1113131 -0.7876858
vn 0.1790498 -0.1115993 -0.9774901
vn -0.2958147 -0.3046091 -0.9053767
vn -0.6914158 -0.4159991 -0.5906683
vn -0.9017524 -0.4159224 -0.1176909
vn -0.8704653 -0.3043996 0.3868216
vn -0.6059378 -0.1113133 0.7876856
vn -0.1790494 0.1115997 0.9774901
vn 0.2203958 0.3551076 0.9084736
vn 0.5636404 0.5771505 0.5909373
vn 0.755858 0.6445463 0.1150597
vn 0.7455441 0.5392365 -0.3916479
vn 0.5354623 0.2894387 -0.7934138
vn 0.1819037 -0.03791395 -0.9825852
vn -0.2203958 -0.3551076 -0.9084736
vn -0.5636406 -0.5771506 -0.5909371
vn -0.755858 -0.6445463 -0.1150597
vn -0.7455441 -0.5392365 0.3916479
vn -0.5354623 -0.2894388 0.7934138
vn -0.1819035 0.03791414 0.9825852
vn 0.2203958 0.3551076 0.9084736
vn 0.3564586 0.7319347 0.580697
vn 0.3970086 0.9126404 0.09732305
vn 0.3311805 0.8488048 -0.4121285
vn 0.1766128 0.5575327 -0.8111506
vn -0.0252781 0.1168702 -0.9928254
vn -0.2203958 -0.3551076 -0.9084736
vn -0.3564587 -0.7319348 -0.5806967
vn -0.3970086 -0.9126404 -0.09732299
vn -0.3311805 -0.8488049 0.4121285
vn -0.1766128 -0.5575328 0.8111505
vn 0.02527824 -0.1168699 0.9928255
vn 0.2203958 0.3551076 0.9084736
vn 0.104907 0.7730005 0.6256714
vn -0.03869149 0.9837686 0.1752211
vn -0.1719227 0.9309366 -0.3221796
vn -0.2590874 0.6286609 -0.7332525
vn -0.2768297 0.1579361 -0.947851
vn -0.2203958 -0.3551076 -0.9084736
vn -0.1049069 -0.7730007 -0.6256712
vn 0.03869151 -0.9837686 -0.175221
vn 0.1719227 -0.9309366 0.3221796
vn 0.2590873 -0.628661 0.7332525
vn 0.2768297 -0.1579358 0.9478511
vn 0.2203958 0.3551076 0.9084736
vn -0.1236113 0.6893445 0.7138098
vn -0.4344969 0.8388721 0.3278812
vn -0.6289594 0.7636246 -0.145903
vn -0.6548927 0.4837645 -0.5805925
vn -0.505348 0.07428009 -0.8597127
vn -0.2203958 -0.3551076 -0.9084736
vn 0.1236115 -0.6893447 -0.7138096
vn 0.4344969 -0.8388721 -0.3278811
vn 0.6289594 -0.7636246 0.1459029
vn 0.6548927 -0.4837646 0.5805924
vn 0.5053479 -0.07427984 0.8597128
vn 0.2203958 0.3551076 0.9084736
vn -0.2678651 0.5033823 0.8214954
vn -0.6843517 0.516776 0.5143981
vn -0.9174668 0.3917001 0.06946823
vn -0.9047474 0.1616684 -0.3940755
vn -0.6496018 -0.1116822 -0.752027
vn -0.2203958 -0.3551076 -0.9084736
vn 0.2678652 -0.5033822 -0.8214954
vn 0.6843517 -0.516776 -0.5143981
vn 0.9174668 -0.3917001 -0.06946826
vn 0.9047475 -0.1616684 0.3940754
vn 0.6496015 0.1116823 0.7520272
vn 0.2203958 0.3551076 0.9084736
vn -0.2892016 0.2649421 0.919874
vn -0.7213076 0.1037856 0.6847949
vn -0.9601398 -0.08518025 0.2662255
vn -0.9417033 -0.251322 -0.2236788
vn -0.6709383 -0.3501223 -0.6536484
vn -0.2203958 -0.3551076 -0.9084736
vn 0.2892017 -0.2649422 -0.919874
vn 0.7213076 -0.1037856 -0.6847948
vn 0.9601398 0.08518024 -0.2662255
vn 0.9417034 0.251322 0.2236786
vn 0.670938 0.3501223 0.6536486
vn 0.2203958 0.3551076 0.9084736
vn -0.1819037 0.03791392 0.9825852
vn -0.5354623 -0.2894388 0.7934138
vn -0.745544 -0.5392366 0.3916478
vn -0.755858 -0.6445464 -0.1150598
vn -0.5636404 -0.5771505 -0.5909373
vn -0.2203958 -0.3551076 -0.9084736
vn 0.1819039 -0.03791375 -0.9825851
vn 0.5354623 0.2894388 -0.7934138
vn 0.7455441 0.5392366 -0.3916479
vn 0.7558579 0.6445464 0.1150597
vn 0.5636402 0.5771504 0.5909375
vn 0.2203958 0.3551076 0.9084736
vn 0.02527817 -0.1168703 0.9928254
vn -0.1766127 -0.5575328 0.8111505
vn -0.3311802 -0.848805 0.4121284
vn -0.3970085 -0.9126404 -0.09732309
vn -0.3564585 -0.7319347 -0.5806969
vn -0.2203958 -0.3551076 -0.9084736
vn -0.02527823 0.1168705 -0.9928254
vn 0.1766128 0.5575329 -0.8111505
vn 0.3311802 0.848805 -0.4121284
vn 0.3970085 0.9126404 0.09732297
vn 0.3564585 0.7319345 0.5806972
vn 0.2203958 0.3551076 0.9084736
vn 0.2768297 -0.1579361 0.947851
vn 0.2590874 -0.6286609 0.7332525
vn 0.1719228 -0.9309366 0.3221795
vn 0.03869156 -0.9837685 -0.1752212
vn -0.104907 -0.7730005 -0.6256714
vn -0.2203958 -0.3551076 -0.9084736
vn -0.2768298 0.1579363 -0.9478509
vn -0.2590874 0.628661 -0.7332525
vn -0.1719228 0.9309366 -0.3221796
vn -0.03869161 0.9837686 0.1752211
vn 0.1049071 0.7730004 0.6256717
vn 0.2203958 0.3551076 0.9084736
vn 0.505348 -0.0742801 0.8597127
vn 0.6548926 -0.4837645 0.5805924
vn 0.6289593 -0.7636247 0.1459029
vn 0.4344968 -0.8388721 -0.3278812
vn 0.1236113 -0.6893445 -0.7138098
vn -0.2203958 -0.3551076 -0.9084736
vn -0.5053481 0.07428032 -0.8597126
vn -0.6548927 0.4837646 -0.5805924
vn -0.6289593 0.7636247 -0.1459029
vn -0.4344969 0.8388722 0.3278811
vn -0.1236111 0.6893444 0.71381
vn 0.2203958 0.3551076 0.9084736
vn 0.6496018 0.1116822 0.752027
vn 0.9047474 -0.1616685 0.3940755
vn 0.9174667 -0.3917002 -0.06946827
vn 0.6843516 -0.5167761 -0.5143982
vn 0.2678651 -0.5033823 -0.8214954
vn -0.2203958 -0.3551076 -0.9084736
vn -0.6496019 -0.1116819 -0.752027
vn -0.9047474 0.1616685 -0.3940755
vn -0.9174668 0.3917002 0.06946824
vn -0.6843517 0.5167761 0.514398
vn -0.2678648 0.5033822 0.8214955
vn 0.2203958 0.3551076 0.9084736
vn 0.6709382 0.3501224 0.6536484
vn 0.9417033 0.2513223 0.2236786
vn 0.9601398 0.08518042 -0.2662257
vn 0.7213074 -0.1037854 -0.684795
vn 0.2892016 -0.2649419 -0.9198741
vn -0.2203958 -0.3551076 -0.9084736
vn -0.6709384 -0.3501224 -0.6536483
vn -0.9417033 -0.2513223 -0.2236785
vn -0.9601397 -0.08518048 0.2662256
vn -0.7213076 0.1037852 0.6847949
vn -0.2892012 0.2649421 0.9198741
vt 0.0003789716 0.04348244
vt 0.003339073 0.04299479
vt 0.006735987 0.06361471
vt 0.003775886 0.06410237
vt -0.0003789709 0.04348245
vt -0.003775884 0.06410237
vt -0.006735988 0.06361471
vt -0.003339072 0.0429948
vt 0.1572696 -0.05516284
vt 0.1544808 -0.05405698
vt 0.153375 -0.05684572
vt 0.1561637 -0.05795158
vt -0.1572696 -0.05516284
vt -0.1561637 -0.05795158
vt -0.153375 -0.05684572
vt -0.1544808 -0.05405698
vt 0.1689754 0.03201883
vt 0.1703377 0.05287223
vt 0.1673441 0.05306779
vt 0.1659818 0.03221439
vt -0.1689754 0.03201883
vt -0.1659818 0.0322144
vt -0.1673441 0.05306778
vt -0.1703377 0.05287223
vt -0.1613621 -0.007547311
vt -0.1615909 -0.004556051
vt -0.1687777 -0.005105849
vt -0.1685488 -0.008097108
vt 0.1613621 -0.007547308
vt 0.1685488 -0.008097107
vt 0.1687777 -0.005105846
vt 0.1615909 -0.004556048
vt -0.004304134 0.0436948
vt -0.004271223 0.04669462
vt -0.007271043 0.04672753
vt -0.007303955 0.04372772
vt 0.004304137 0.0436948
vt 0.007303956 0.04372772
vt 0.007271045 0.04672753
vt 0.004271225 0.04669462
vt 0.1615043 0.04350939
vt 0.168712 0.04350333
vt 0.1687145 0.04650333
vt 0.1615068 0.04650938
vt -0.1615043 0.04350939
vt -0.1615068 0.04650938
vt -0.1687145 0.04650333
vt -0.168712 0.04350334
vt 0.05184307 0.1642574
vt 0.05472344 0.1634187
vt 0.05680465 0.1705659
vt 0.05392428 0.1714046
vt -0.05184307 0.1642574
vt -0.05392428 0.1714046
vt -0.05680465 0.1705659
vt -0.05472343 0.1634187
vt -0.002489727 -0.01449659
vt -0.002774037 -0.0115101
vt -0.005760535 -0.01179441
vt -0.005476226 -0.01478091
vt 0.002489726 -0.01449659
vt 0.005476223 -0.0147809
vt 0.005760533 -0.01179441
vt 0.002774035 -0.0115101
vt 0.1680876 0.04001758
vt 0.1751632 0.04233075
vt 0.1742309 0.04518224
vt 0.1671554 0.04286906
vt -0.1680876 0.04001758
vt -0.1671554 0.04286906
vt -0.1742309 0.04518224
vt -0.1751632 0.04233076
vt -0.08081558 0.01025552
vt -0.07929828 0.007667507
vt -0.07441878 0.01052826
vt -0.07593606 0.01311627
vt 0.08081557 0.01025552
vt 0.07593606 0.01311627
vt 0.07441877 0.01052825
vt 0.07929828 0.00766751
vt 0.1423452 0.09548317
vt 0.1394762 0.09460653
vt 0.1403528 0.09173747
vt 0.1432219 0.0926141
vt -0.1423452 0.09548316
vt -0.1432219 0.0926141
vt -0.1403528 0.09173746
vt -0.1394762 0.09460653
vt 0.1752877 0.01858545
vt 0.1726736 0.0236014
vt 0.1700132 0.02221491
vt 0.1726273 0.01719896
vt -0.1752877 0.01858545
vt -0.1726274 0.01719896
vt -0.1700132 0.02221491
vt -0.1726736 0.02360141
vt 0.01641213 0.01342111
vt 0.01655675 0.0104246
vt 0.02513582 0.01083866
vt 0.0249912 0.01383517
vt -0.01641213 0.01342111
vt -0.0249912 0.01383517
vt -0.02513582 0.01083865
vt -0.01655675 0.0104246
vt -0.1674634 0.05328429
vt -0.1703801 0.05398636
vt -0.1710822 0.05106967
vt -0.1681655 0.05036759
vt 0.1674634 0.05328429
vt 0.1681655 0.0503676
vt 0.1710822 0.05106967
vt 0.1703801 0.05398636
vt -0.01775198 0.1752122
vt -0.009330541 0.1769008
vt -0.009920323 0.1798422
vt -0.01834176 0.1781536
vt 0.01775198 0.1752122
vt 0.01834176 0.1781536
vt 0.009920321 0.1798422
vt 0.009330539 0.1769008
vt 0.01514578 -0.01926585
vt 0.0129723 -0.02133368
vt 0.01687105 -0.02543163
vt 0.01904454 -0.02336379
vt -0.01514578 -0.01926585
vt -0.01904454 -0.02336379
vt -0.01687105 -0.02543163
vt -0.0129723 -0.02133368
vt 0.1512551 0.09413849
vt 0.1487289 0.09252045
vt 0.1503469 0.0899942
vt 0.1528732 0.09161223
vt -0.1512551 0.09413849
vt -0.1528731 0.09161223
vt -0.1503469 0.0899942
vt -0.1487289 0.09252045
vt -0.1648201 0.0718639
vt -0.1677634 0.06703373
vt -0.1652016 0.06547265
vt -0.1622583 0.07030283
vt 0.1648201 0.0718639
vt 0.1622583 0.07030283
vt 0.1652016 0.06547265
vt 0.1677634 0.06703374
vt 0.1729341 0.04582862
vt 0.1746167 0.03982578
vt 0.1779089 0.04074859
vt 0.1762263 0.04675143
vt -0.1729341 0.04582862
vt -0.1762263 0.04675144
vt -0.1779089 0.04074859
vt -0.1746167 0.03982578
vt -0.00132171 -0.002564774
vt -0.008851785 -0.002662973
vt -0.008770491 -0.008896648
vt -0.001240417 -0.008798448
vt 0.001321713 -0.002564772
vt 0.001240418 -0.008798448
vt 0.008770494 -0.00889665
vt 0.008851785 -0.002662972
vt -0.009667228 0.1786291
vt -0.009826132 0.1820445
vt -0.01734871 0.1816945
vt -0.01718981 0.1782791
vt 0.00966723 0.1786291
vt 0.01718981 0.1782791
vt 0.01734871 0.1816945
vt 0.009826131 0.1820445
vt 0.1687086 0.03075408
vt 0.1712702 0.02867379
vt 0.1721307 0.02929712
vt 0.1691421 0.03172412
vt 0.16091 -0.00143139
vt 0.1637459 -0.003987151
vt 0.1645569 -0.003324806
vt 0.1614245 -0.0005017643
vt 0.120946 -0.08170477
vt 0.1232695 -0.08513658
vt 0.1241429 -0.08454829
vt 0.121739 -0.08099755
vt -0.04991265 -0.1331773
vt -0.05098993 -0.1372885
vt -0.04992605 -0.1374201
vt -0.04888485 -0.1334466
vt -0.1499636 -0.03539311
vt -0.1529325 -0.03828478
vt -0.1520177 -0.03886383
vt -0.1493299 -0.03624593
vt -0.1670647 0.02053365
vt -0.1700373 0.01813838
vt -0.1691502 0.01752394
vt -0.1666023 0.01957703
vt -0.1687086 0.03075408
vt -0.1712702 0.02867379
vt -0.1704098 0.02805047
vt -0.1682751 0.02978404
vt -0.16091 -0.001431416
vt -0.1629356 -0.003256962
vt -0.1621245 -0.003919307
vt -0.1603955 -0.002361037
vt -0.120946 -0.08170478
vt -0.1222285 -0.08359908
vt -0.1213551 -0.08418737
vt -0.1201531 -0.08241199
vt 0.04991265 -0.1331773
vt 0.05045129 -0.1352329
vt 0.05151517 -0.1351012
vt 0.05094045 -0.1329079
vt 0.1499636 -0.03539313
vt 0.1516024 -0.03698928
vt 0.1525171 -0.03641022
vt 0.1505973 -0.0345403
vt 0.1670647 0.02053366
vt 0.169188 0.01882276
vt 0.170075 0.01943718
vt 0.1675271 0.02149028
vt 0.1712702 0.02867379
vt 0.1724485 0.0255914
vt 0.1735054 0.02570099
vt 0.1721307 0.02929712
vt 0.1489308 -0.004993222
vt 0.1499986 -0.008658385
vt 0.1510368 -0.008521586
vt 0.1498573 -0.004473121
vt 0.08185494 -0.05930432
vt 0.08230908 -0.06342371
vt 0.0833561 -0.06331083
vt 0.08288623 -0.05904868
vt -0.02451167 -0.07469082
vt -0.02506792 -0.07890426
vt -0.02399592 -0.0789022
vt -0.02345831 -0.07482988
vt -0.1147886 -0.03087873
vt -0.1160589 -0.0348236
vt -0.1149794 -0.0349072
vt -0.1138294 -0.03133581
vt -0.1606717 0.01739489
vt -0.1620815 0.01384719
vt -0.161007 0.01374859
vt -0.1597986 0.01678947
vt -0.1712702 0.02867379
vt -0.1724485 0.0255914
vt -0.1713917 0.02548181
vt -0.1704098 0.02805047
vt -0.1489307 -0.004993271
vt -0.1496935 -0.007611243
vt -0.1486553 -0.007748046
vt -0.1480042 -0.005513371
vt -0.08185493 -0.05930433
vt -0.08210561 -0.06157816
vt -0.08105858 -0.06169104
vt -0.08082364 -0.05955996
vt 0.02451166 -0.0746908
vt 0.02478978 -0.07679753
vt 0.02586178 -0.07679959
vt 0.02556502 -0.07455175
vt 0.1147886 -0.03087875
vt 0.1154897 -0.03305624
vt 0.1165691 -0.03297266
vt 0.1157477 -0.03042167
vt 0.1606717 0.01739491
vt 0.1616787 0.01486083
vt 0.1627533 0.01495943
vt 0.1615449 0.01800032
vt 0.1724485 0.0255914
vt 0.1719278 0.0223328
vt 0.1728978 0.0218993
vt 0.1735054 0.02570099
vt 0.143202 0.01283687
vt 0.1424737 0.009089438
vt 0.1434593 0.008735825
vt 0.1442638 0.01287516
vt 0.07475765 0.00459136
vt 0.07403857 0.0005098713
vt 0.07507524 0.0003246532
vt 0.07581925 0.004547586
vt -0.01362258 0.009175884
vt -0.01407677 0.004950223
vt -0.01300514 0.004978207
vt -0.01256616 0.009062337
vt -0.09753302 0.02188352
vt -0.09757757 0.0177394
vt -0.09652184 0.01797936
vt -0.09648151 0.02173112
vt -0.1554032 0.03005402
vt -0.1550774 0.02625039
vt -0.1540723 0.02664279
vt -0.1543515 0.02990305
vt -0.1724485 0.0255914
vt -0.1719278 0.0223328
vt -0.1709577 0.02276631
vt -0.1713917 0.02548181
vt -0.143202 0.01283686
vt -0.1426818 0.01016012
vt -0.1416961 0.01051373
vt -0.1421402 0.01279857
vt -0.07475765 0.004591359
vt -0.07436072 0.002338452
vt -0.07332405 0.00252367
vt -0.07369605 0.004635134
vt 0.01362257 0.009175887
vt 0.01384967 0.00706306
vt 0.0149213 0.007035071
vt 0.01467899 0.00928944
vt 0.09753302 0.0218835
vt 0.09755761 0.01959602
vt 0.09861334 0.01935607
vt 0.09858453 0.0220359
vt 0.1554032 0.03005402
vt 0.1551705 0.02733714
vt 0.1561757 0.02694474
vt 0.156455 0.03020499
vt 0.1719278 0.0223328
vt 0.1698475 0.01977115
vt 0.1704708 0.0189107
vt 0.1728978 0.0218993
vt 0.1471753 0.0335403
vt 0.1448736 0.0304947
vt 0.1456034 0.02974376
vt 0.1481458 0.03310785
vt 0.08631941 0.06715272
vt 0.08452688 0.06341608
vt 0.08547528 0.06295832
vt 0.08732992 0.06682445
vt -0.003896491 0.09161188
vt -0.004390797 0.08739071
vt -0.003318952 0.08740853
vt -0.002841202 0.09148829
vt -0.09683667 0.07939122
vt -0.09579282 0.07538048
vt -0.09483697 0.07588891
vt -0.095782 0.07951993
vt -0.1568048 0.04379014
vt -0.1548244 0.0405264
vt -0.1540979 0.04132422
vt -0.1557953 0.04412172
vt -0.1719278 0.0223328
vt -0.1698475 0.01977115
vt -0.1692242 0.0206316
vt -0.1709577 0.02276631
vt -0.1471753 0.03354032
vt -0.1455312 0.03136488
vt -0.1448014 0.03211583
vt -0.1462048 0.03397275
vt -0.0863194 0.06715272
vt -0.08532996 0.06509017
vt -0.08438157 0.06554794
vt -0.08530889 0.067481
vt 0.003896486 0.09161188
vt 0.004143641 0.08950131
vt 0.005215487 0.0894835
vt 0.004951775 0.09173545
vt 0.09683665 0.07939123
vt 0.09626047 0.07717739
vt 0.09721632 0.07666896
vt 0.09789132 0.07926252
vt 0.1568048 0.04379012
vt 0.1553902 0.04145889
vt 0.1561168 0.04066106
vt 0.1578142 0.04345855
vt 0.1698475 0.01977115
vt 0.1667651 0.01859284
vt 0.1668747 0.01753601
vt 0.1704708 0.0189107
vt 0.1577499 0.04007771
vt 0.1542841 0.03847693
vt 0.1545738 0.03747061
vt 0.1584019 0.0392388
vt 0.1187628 0.09484212
vt 0.1156864 0.09206523
vt 0.1163901 0.09128181
vt 0.1195731 0.09415492
vt 0.01245002 0.1493346
vt 0.01168806 0.1451535
vt 0.01275887 0.1451031
vt 0.01349531 0.1491441
vt -0.1181039 0.1060902
vt -0.1156878 0.102723
vt -0.1149787 0.1035411
vt -0.1171661 0.1065895
vt -0.1640459 0.04103933
vt -0.1607101 0.03918291
vt -0.1604735 0.0402357
vt -0.1633327 0.04182692
vt -0.1698475 0.01977115
vt -0.1667651 0.01859284
vt -0.1666555 0.01964968
vt -0.1692242 0.0206316
vt -0.1577499 0.0400777
vt -0.1552744 0.03893429
vt -0.1549848 0.0399406
vt -0.1570978 0.04091661
vt -0.1187628 0.09484213
vt -0.1170646 0.09330934
vt -0.1163609 0.09409276
vt -0.1179524 0.09552933
vt -0.01245003 0.1493346
vt -0.01206905 0.1472441
vt -0.01099824 0.1472945
vt -0.01140475 0.1495251
vt 0.1181039 0.1060902
vt 0.1167703 0.1042316
vt 0.1174794 0.1034134
vt 0.1190418 0.1055909
vt 0.1640459 0.04103931
vt 0.1616632 0.03971329
vt 0.1618998 0.03866049
vt 0.1647591 0.04025172
vt 0.1667651 0.01859284
vt 0.1635065 0.01911359
vt 0.163073 0.01814355
vt 0.1668747 0.01753601
vt 0.1657979 0.02712793
vt 0.1620059 0.0275688
vt 0.1617284 0.0265591
vt 0.165917 0.02607211
vt 0.163008 0.04192758
vt 0.158867 0.0417622
vt 0.1589064 0.04070984
vt 0.163191 0.04088096
vt 0.1106703 0.1269555
vt 0.1076117 0.1240046
vt 0.1084518 0.1233388
vt 0.111408 0.1261908
vt -0.1655434 0.02987314
vt -0.1614271 0.02939204
vt -0.1615544 0.03046718
vt -0.165281 0.03090273
vt -0.1672205 0.01515491
vt -0.1634224 0.01553998
vt -0.1638304 0.01653891
vt -0.1670859 0.01620886
vt -0.1667651 0.01859284
vt -0.1635065 0.01911359
vt -0.16394 0.02008364
vt -0.1666555 0.01964968
vt -0.1657979 0.02712793
vt -0.1630893 0.02744284
vt -0.1633669 0.02845254
vt -0.1656789 0.02818374
vt -0.163008 0.04192758
vt -0.1607222 0.04183629
vt -0.1606827 0.04288865
vt -0.162825 0.0429742
vt -0.1106703 0.1269554
vt -0.109141 0.12548
vt -0.1083008 0.1261458
vt -0.1099326 0.1277201
vt 0.1655434 0.02987315
vt 0.1632712 0.02960759
vt 0.1631439 0.02853245
vt 0.1658058 0.02884356
vt 0.1672205 0.01515491
vt 0.1645076 0.01542995
vt 0.1640995 0.01443102
vt 0.167355 0.01410096
vt 0.1635065 0.01911359
vt 0.1609448 0.02119388
vt 0.1600844 0.02057056
vt 0.163073 0.01814355
vt 0.1622595 0.01059221
vt 0.1592869 0.01298749
vt 0.1585136 0.01228137
vt 0.1617971 0.009635603
vt 0.1461613 -0.04051008
vt 0.1431925 -0.03761841
vt 0.1424559 -0.03837102
vt 0.1455276 -0.04136291
vt 0.04991263 -0.1331773
vt 0.04883535 -0.1290661
vt 0.04784364 -0.1294731
vt 0.04888484 -0.1334466
vt -0.1161884 -0.08594808
vt -0.113865 -0.08251627
vt -0.1148779 -0.08213396
vt -0.1169814 -0.08524086
vt -0.1555632 -0.01109231
vt -0.1527274 -0.008536551
vt -0.153647 -0.007972036
vt -0.1560777 -0.01016269
vt -0.1635065 0.01911359
vt -0.1609448 0.02119388
vt -0.1618053 0.02181721
vt -0.16394 0.02008364
vt -0.1622595 0.0105922
vt -0.1601362 0.01230311
vt -0.1609094 0.01300923
vt -0.1627218 0.01154881
vt -0.1461613 -0.04051009
vt -0.1445226 -0.03891394
vt -0.1452592 -0.03816132
vt -0.1467951 -0.03965726
vt -0.04991264 -0.1331773
vt -0.049374 -0.1311217
vt -0.05036572 -0.1307146
vt -0.05094044 -0.1329079
vt 0.1161884 -0.0859481
vt 0.1149059 -0.0840538
vt 0.113893 -0.0844361
vt 0.1153955 -0.08665532
vt 0.1555632 -0.01109229
vt 0.1535376 -0.009266743
vt 0.152618 -0.009831256
vt 0.1550487 -0.01202191
vt 0.1609448 0.02119388
vt 0.1597665 0.02427628
vt 0.1587097 0.02416669
vt 0.1600844 0.02057056
vt 0.1515977 0.01110322
vt 0.1501879 0.01465093
vt 0.1491674 0.01441653
vt 0.1507246 0.01049781
vt 0.1090336 -0.0336212
vt 0.1077633 -0.02967633
vt 0.1067601 -0.0299967
vt 0.1080744 -0.03407828
vt 0.02451165 -0.07469077
vt 0.0239554 -0.07047732
vt 0.02292068 -0.07075752
vt 0.02345829 -0.07482983
vt -0.07566721 -0.06083813
vt -0.07521306 -0.05671873
vt -0.07628735 -0.05685311
vt -0.0766985 -0.0605825
vt -0.1393023 -0.01039826
vt -0.1382344 -0.006733093
vt -0.1393134 -0.006736589
vt -0.1402288 -0.009878157
vt -0.1609448 0.02119388
vt -0.1597665 0.02427628
vt -0.1608234 0.02438587
vt -0.1618053 0.02181721
vt -0.1515977 0.01110322
vt -0.1505907 0.0136373
vt -0.1516113 0.0138717
vt -0.1524709 0.01170864
vt -0.1090336 -0.03362121
vt -0.1083324 -0.03144371
vt -0.1093356 -0.03112333
vt -0.1099928 -0.03316412
vt -0.02451166 -0.07469077
vt -0.02423353 -0.07258405
vt -0.02526826 -0.07230385
vt -0.02556502 -0.0745517
vt 0.07566719 -0.06083813
vt 0.07541651 -0.0585643
vt 0.07434223 -0.05842993
vt 0.0746359 -0.06109377
vt 0.1393023 -0.01039823
vt 0.1385395 -0.007780254
vt 0.1374605 -0.007776757
vt 0.1383758 -0.01091832
vt 0.1597665 0.02427628
vt 0.1602873 0.02753488
vt 0.1593173 0.02796839
vt 0.1587097 0.02416669
vt 0.1444734 0.02848507
vt 0.1447992 0.0322887
vt 0.1437816 0.03253551
vt 0.1434217 0.02833409
vt 0.09122394 0.02096911
vt 0.09117939 0.02511322
vt 0.09012633 0.02510443
vt 0.09017242 0.02081671
vt 0.01362256 0.009175906
vt 0.01316837 0.01340156
vt 0.01212717 0.01314648
vt 0.01256615 0.009062357
vt -0.06838809 0.004854034
vt -0.06910717 0.008935523
vt -0.07010069 0.008505319
vt -0.06944969 0.004810256
vt -0.1321674 0.01243892
vt -0.1328957 0.01618635
vt -0.1338535 0.0156893
vt -0.1332292 0.01247721
vt -0.1597665 0.02427628
vt -0.1602873 0.02753488
vt -0.1612573 0.02710137
vt -0.1608234 0.02438587
vt -0.1444734 0.02848507
vt -0.1447061 0.03120195
vt -0.1457238 0.03095515
vt -0.1455251 0.02863604
vt -0.09122392 0.0209691
vt -0.09119933 0.02325659
vt -0.09225239 0.02326537
vt -0.09227544 0.02112151
vt -0.01362256 0.009175905
vt -0.01339547 0.01128873
vt -0.01443667 0.01154382
vt -0.01467898 0.009289453
vt 0.06838806 0.004854032
vt 0.06878499 0.007106939
vt 0.06779147 0.007537139
vt 0.06732646 0.004897804
vt 0.1321674 0.01243892
vt 0.1326877 0.01511567
vt 0.1317299 0.01561272
vt 0.1311056 0.01240063
vt 0.1602873 0.02753488
vt 0.1623676 0.03009653
vt 0.1617443 0.03095697
vt 0.1593173 0.02796839
vt 0.1463144 0.04723594
vt 0.1482947 0.05049969
vt 0.1474924 0.05117257
vt 0.1453049 0.04756751
vt 0.09050861 0.08016346
vt 0.09155245 0.0841742
vt 0.09053396 0.0844419
vt 0.08945394 0.08029217
vt 0.003896481 0.09161188
vt 0.003402175 0.09583303
vt 0.00236344 0.09556808
vt 0.002841192 0.0914883
vt -0.08025633 0.06912239
vt -0.08204885 0.07285903
vt -0.08288965 0.07217698
vt -0.08126684 0.06879411
vt -0.1370894 0.03803431
vt -0.1393912 0.04107991
vt -0.1400329 0.04021239
vt -0.1380599 0.03760187
vt -0.1602873 0.02753488
vt -0.1623676 0.03009653
vt -0.1629909 0.02923607
vt -0.1612573 0.02710137
vt -0.1463144 0.04723596
vt -0.1477289 0.0495672
vt -0.1485312 0.04889431
vt -0.1473238 0.04690439
vt -0.0905086 0.08016348
vt -0.09108478 0.08237733
vt -0.09210329 0.08210963
vt -0.09156327 0.08003477
vt -0.003896486 0.09161188
vt -0.003649332 0.09372245
vt -0.004688065 0.09398741
vt -0.004951776 0.09173545
vt 0.08025631 0.06912239
vt 0.08124575 0.07118495
vt 0.08040495 0.071867
vt 0.07924579 0.06945066
vt 0.1370894 0.0380343
vt 0.1387335 0.04020972
vt 0.1380918 0.04107725
vt 0.1361189 0.03846673
vt 0.1623676 0.03009653
vt 0.16545 0.03127484
vt 0.1653404 0.03233167
vt 0.1617443 0.03095697
vt 0.1566344 0.04922421
vt 0.1599702 0.05108063
vt 0.1596059 0.05206236
vt 0.1559213 0.05001179
vt 0.1124767 0.109086
vt 0.1148928 0.1124532
vt 0.1140387 0.1130692
vt 0.1115388 0.1095853
vt -0.01245004 0.1493346
vt -0.013212 0.1535158
vt -0.01423177 0.1531852
vt -0.01349532 0.1491441
vt -0.1139007 0.09896529
vt -0.1169772 0.1017422
vt -0.1174962 0.1007921
vt -0.1147111 0.0982781
vt -0.1509737 0.04879583
vt -0.1544394 0.05039661
vt -0.1545964 0.04932903
vt -0.1516258 0.04795693
vt -0.1623676 0.03009653
vt -0.16545 0.03127483
vt -0.1655596 0.030218
vt -0.1629909 0.02923607
vt -0.1566344 0.04922423
vt -0.1590171 0.05055025
vt -0.1593814 0.04956852
vt -0.1573476 0.04843664
vt -0.1124767 0.109086
vt -0.1138103 0.1109447
vt -0.1146645 0.1103287
vt -0.1134145 0.1085867
vt 0.01245003 0.1493346
vt 0.01283101 0.1514252
vt 0.01181125 0.1517557
vt 0.01140474 0.1495251
vt 0.1139007 0.09896532
vt 0.1155988 0.1004981
vt 0.1150797 0.1014482
vt 0.1130903 0.09965251
vt 0.1509738 0.0487958
vt 0.1534493 0.04993922
vt 0.1532923 0.05100681
vt 0.1503217 0.04963471
vt 0.16545 0.03127484
vt 0.1687086 0.03075408
vt 0.1691421 0.03172412
vt 0.1653404 0.03233167
vt 0.1658222 0.02610782
vt 0.1696203 0.02572275
vt 0.1698829 0.02673643
vt 0.1656876 0.02716177
vt 0.1639691 0.0360506
vt 0.1680854 0.03653169
vt 0.1679657 0.03757796
vt 0.1637067 0.03708019
vt -0.1106704 0.1269553
vt -0.113729 0.1299062
vt -0.1143643 0.1290427
vt -0.1114082 0.1261907
vt -0.16191 0.04820726
vt -0.1660511 0.04837263
vt -0.165842 0.04731036
vt -0.162093 0.04716063
vt -0.1645609 0.03810021
vt -0.1683529 0.03765934
vt -0.1679302 0.03666651
vt -0.1646799 0.0370444
vt -0.16545 0.03127483
vt -0.1687086 0.03075408
vt -0.1682751 0.02978404
vt -0.1655596 0.030218
vt -0.1658222 0.02610782
vt -0.1685351 0.02583278
vt -0.1682725 0.0248191
vt -0.1659567 0.02505388
vt -0.1639691 0.0360506
vt -0.1662412 0.03631616
vt -0.166361 0.0352699
vt -0.1642315 0.03502101
vt 0.1106705 0.1269553
vt 0.1121998 0.1284307
vt 0.1115645 0.1292942
vt 0.1099328 0.1277199
vt 0.16191 0.04820724
vt 0.1641958 0.04829853
vt 0.1644049 0.0493608
vt 0.161727 0.04925386
vt 0.1645609 0.03810021
vt 0.1672694 0.03778531
vt 0.1676921 0.03877813
vt 0.1644418 0.03915603
vt 0.1553894 0.05186425
vt 0.1583902 0.05049136
vt 0.1590672 0.05131021
vt 0.1555663 0.05291192
vt 0.1524489 0.0243642
vt 0.1559225 0.02278063
vt 0.1564966 0.0236564
vt 0.1526597 0.02540558
vt 0.1411138 -0.03566065
vt 0.1447589 -0.03763276
vt 0.1452622 -0.03670775
vt 0.1414908 -0.0346673
vt -0.07450879 -0.1264328
vt -0.07600741 -0.1304098
vt -0.07496296 -0.1306513
vt -0.07351454 -0.1268075
vt -0.1558692 0.01559165
vt -0.1596389 0.01386971
vt -0.1589728 0.01301623
vt -0.15556 0.01457514
vt -0.1567444 0.05117577
vt -0.1602396 0.04964035
vt -0.1595439 0.0488155
vt -0.1565481 0.05013158
vt -0.1553894 0.05186425
vt -0.1583902 0.05049136
vt -0.1577131 0.0496725
vt -0.1552125 0.05081658
vt -0.1524489 0.02436418
vt -0.15493 0.02323306
vt -0.154356 0.02235729
vt -0.1522381 0.0233228
vt -0.1411138 -0.03566067
vt -0.1431258 -0.03674923
vt -0.1426225 -0.03767424
vt -0.1407368 -0.03665402
vt 0.07450877 -0.1264328
vt 0.07525808 -0.1284213
vt 0.07630254 -0.1281799
vt 0.07550303 -0.1260581
vt 0.1558692 0.01559163
vt 0.15795 0.01464115
vt 0.1586161 0.01549463
vt 0.1561784 0.01660814
vt 0.1567444 0.05117578
vt 0.159241 0.05007906
vt 0.1599367 0.05090391
vt 0.1569408 0.05221997
vt 0.1583902 0.05049136
vt 0.1603025 0.047802
vt 0.1612983 0.04817263
vt 0.1590672 0.05131021
vt 0.140324 0.01305412
vt 0.1423404 0.009812545
vt 0.1433033 0.01022417
vt 0.141076 0.01380474
vt 0.08416696 -0.05757894
vt 0.08557212 -0.0614778
vt 0.08656368 -0.06112313
vt 0.08510984 -0.05708915
vt -0.03382822 -0.08699904
vt -0.03424466 -0.09122859
vt -0.03317333 -0.09119105
vt -0.03277083 -0.08710316
vt -0.1265245 -0.02191606
vt -0.1284044 -0.02560953
vt -0.1273519 -0.02586325
vt -0.12565 -0.02251948
vt -0.1564958 0.03820532
vt -0.1586623 0.03506201
vt -0.1576369 0.03472595
vt -0.1557799 0.03742022
vt -0.1583902 0.05049136
vt -0.1603025 0.047802
vt -0.1593067 0.04743137
vt -0.1577131 0.0496725
vt -0.140324 0.01305407
vt -0.1417643 0.01073867
vt -0.1408014 0.01032704
vt -0.139572 0.01230345
vt -0.08416694 -0.05757894
vt -0.08494257 -0.05973106
vt -0.083951 -0.06008573
vt -0.08322407 -0.05806873
vt 0.03382821 -0.08699904
vt 0.03403644 -0.08911382
vt 0.03510777 -0.08915137
vt 0.0348856 -0.08689492
vt 0.1265245 -0.02191607
vt 0.1275622 -0.0239548
vt 0.1286147 -0.02370107
vt 0.1273991 -0.02131265
vt 0.1564958 0.03820535
vt 0.1580433 0.03596012
vt 0.1590687 0.03629618
vt 0.1572118 0.03899045
vt 0.1603025 0.047802
vt 0.1606139 0.04451679
vt 0.1616616 0.04433987
vt 0.1612983 0.04817263
vt 0.1298779 0.02594449
vt 0.1300808 0.02213233
vt 0.1311229 0.02202852
vt 0.1308986 0.02623936
vt 0.06259453 -0.003189113
vt 0.06257069 -0.007333399
vt 0.06362376 -0.007341987
vt 0.06364841 -0.003054085
vt -0.02582705 -0.009413972
vt -0.02611094 -0.01365448
vt -0.0250413 -0.01358342
vt -0.02476692 -0.009484947
vt -0.1048617 0.01415011
vt -0.1053011 0.01002912
vt -0.1042273 0.01016734
vt -0.1038295 0.01389818
vt -0.1517529 0.04219454
vt -0.1521865 0.03840168
vt -0.1511236 0.03858734
vt -0.1507519 0.04183836
vt -0.1603025 0.047802
vt -0.1606139 0.04451679
vt -0.1595663 0.04469369
vt -0.1593067 0.04743137
vt -0.1298778 0.02594447
vt -0.1300228 0.0232215
vt -0.1289808 0.02332531
vt -0.1288571 0.02564961
vt -0.06259452 -0.003189119
vt -0.06258136 -0.005476687
vt -0.0615283 -0.005468098
vt -0.06154063 -0.003324148
vt 0.02582705 -0.009413977
vt 0.02596899 -0.01153423
vt 0.02703863 -0.01160529
vt 0.02688717 -0.009343005
vt 0.1048617 0.0141501
vt 0.1051042 0.01187538
vt 0.106178 0.01173715
vt 0.1058939 0.01440203
vt 0.151753 0.04219455
vt 0.1520627 0.03948537
vt 0.1531256 0.03929971
vt 0.152754 0.04255072
vt 0.1606139 0.04451679
vt 0.1592411 0.04151598
vt 0.1600599 0.04083895
vt 0.1616616 0.04433987
vt 0.1287175 0.04883059
vt 0.1272161 0.04532069
vt 0.1281051 0.04476738
vt 0.1297636 0.04864434
vt 0.0629541 0.06253805
vt 0.0618414 0.05854586
vt 0.06285515 0.05826069
vt 0.0640064 0.06239121
vt -0.0206042 0.07209187
vt -0.02087408 0.06785046
vt -0.01980468 0.06792504
vt -0.01954384 0.0720244
vt -0.099281 0.06775696
vt -0.09861051 0.06366721
vt -0.09761195 0.06408556
vt -0.09821896 0.0677881
vt -0.1504064 0.05388913
vt -0.1491263 0.05029258
vt -0.1482536 0.05092715
vt -0.1493508 0.05400991
vt -0.1606139 0.04451679
vt -0.1592411 0.04151598
vt -0.1584222 0.04219303
vt -0.1595663 0.04469369
vt -0.1287175 0.04883059
vt -0.127645 0.04632353
vt -0.126756 0.04687684
vt -0.1276715 0.04901685
vt -0.06295409 0.06253804
vt -0.06233989 0.06033443
vt -0.06132615 0.0606196
vt -0.06190179 0.06268487
vt 0.02060419 0.07209187
vt 0.02073913 0.06997116
vt 0.02180853 0.06989657
vt 0.02166455 0.07215935
vt 0.099281 0.06775696
vt 0.09891089 0.06549948
vt 0.09990945 0.06508113
vt 0.100343 0.06772581
vt 0.1504064 0.05388912
vt 0.1494921 0.05132016
vt 0.1503648 0.05068558
vt 0.151462 0.05376834
vt 0.1592411 0.04151598
vt 0.1565517 0.03960367
vt 0.1569223 0.0386079
vt 0.1600599 0.04083895
vt 0.1369972 0.06370281
vt 0.1340651 0.06125817
vt 0.1346057 0.06036137
vt 0.1378445 0.06306165
vt 0.08186709 0.108656
vt 0.07958247 0.1051982
vt 0.0804597 0.1046156
vt 0.0828235 0.1081932
vt -0.01422795 0.1350665
vt -0.0145728 0.1308305
vt -0.01350225 0.1308862
vt -0.01316895 0.1349803
vt -0.1094196 0.1035749
vt -0.1075666 0.09986784
vt -0.106737 0.1005634
vt -0.1084145 0.1039195
vt -0.1542062 0.05691043
vt -0.1514098 0.0543116
vt -0.1509288 0.0552775
vt -0.1533257 0.05750508
vt -0.1592411 0.04151598
vt -0.1565517 0.03960366
vt -0.1561811 0.04059943
vt -0.1584222 0.04219303
vt -0.1369972 0.06370281
vt -0.1349028 0.06195665
vt -0.1343622 0.06285346
vt -0.13615 0.06434397
vt -0.08186708 0.108656
vt -0.08060602 0.1067474
vt -0.07972879 0.10733
vt -0.08091068 0.1091188
vt 0.01422794 0.1350665
vt 0.01440036 0.1329485
vt 0.01547091 0.1328929
vt 0.01528693 0.1351527
vt 0.1094196 0.1035749
vt 0.1083968 0.1015287
vt 0.1092264 0.1008331
vt 0.1104246 0.1032303
vt 0.1542062 0.05691041
vt 0.1522088 0.0550541
vt 0.1526898 0.05408819
vt 0.1550867 0.05631577
vt 0.1565517 0.03960367
vt 0.1532665 0.03929222
vt 0.1530896 0.03824456
vt 0.1569223 0.0386079
vt 0.1493216 0.05899657
vt 0.1455554 0.05837208
vt 0.1455678 0.05732501
vt 0.1497278 0.05801481
vt 0.126319 0.09992023
vt 0.1225965 0.09809859
vt 0.1230571 0.09715156
vt 0.1269086 0.09903633
vt 0.003674792 0.1624482
vt 0.002922439 0.1582653
vt 0.003993356 0.1582173
vt 0.004720511 0.1622601
vt -0.1424546 0.08005611
vt -0.138958 0.07783128
vt -0.1386047 0.07885467
vt -0.1417702 0.08086885
vt -0.1578676 0.04021316
vt -0.1541204 0.0394832
vt -0.1542221 0.04055746
vt -0.1574339 0.04118314
vt -0.1565517 0.03960366
vt -0.1532665 0.03929222
vt -0.1534434 0.04033989
vt -0.1561811 0.04059943
vt -0.1493216 0.0589966
vt -0.1466315 0.05855053
vt -0.1466191 0.0595976
vt -0.1489153 0.05997835
vt -0.126319 0.09992022
vt -0.1242643 0.09891471
vt -0.1238037 0.09986174
vt -0.1257294 0.1008041
vt -0.00367481 0.1624482
vt -0.003298633 0.1603568
vt -0.002227716 0.1604048
vt -0.002629091 0.1626363
vt 0.1424545 0.08005612
vt 0.1405245 0.07882806
vt 0.1408778 0.07780468
vt 0.1431389 0.07924338
vt 0.1578675 0.04021316
vt 0.155191 0.03969176
vt 0.1550893 0.0386175
vt 0.1583012 0.03924318
vt 0.1532665 0.03929222
vt 0.1502657 0.04066512
vt 0.1495886 0.03984626
vt 0.1530896 0.03824456
vt 0.1547035 0.04032419
vt 0.1512084 0.04185961
vt 0.1506465 0.04097599
vt 0.1545072 0.03928
vt 0.1540139 0.009492561
vt 0.1502442 0.0112145
vt 0.1498043 0.01025766
vt 0.1537047 0.00847605
vt 0.07450867 -0.1264329
vt 0.07301004 -0.1224559
vt 0.07206599 -0.1229637
vt 0.07351442 -0.1268075
vt -0.1388517 -0.0416208
vt -0.1352066 -0.03964869
vt -0.1359287 -0.03884204
vt -0.1392287 -0.04062744
vt -0.1502582 0.01354186
vt -0.1467846 0.01512543
vt -0.1474916 0.01594059
vt -0.150469 0.01458324
vt -0.1532665 0.03929222
vt -0.1502657 0.04066512
vt -0.1509427 0.04148398
vt -0.1534434 0.04033989
vt -0.1547035 0.04032418
vt -0.152207 0.04142091
vt -0.1527689 0.04230452
vt -0.1548999 0.04136837
vt -0.1540139 0.009492548
vt -0.1519331 0.01044303
vt -0.1523729 0.01139987
vt -0.1543231 0.01050906
vt -0.07450872 -0.1264328
vt -0.07375941 -0.1244443
vt -0.07470347 -0.1239365
vt -0.07550297 -0.1260582
vt 0.1388517 -0.04162082
vt 0.1368396 -0.04053225
vt 0.1361175 -0.0413389
vt 0.1384746 -0.04261418
vt 0.1502582 0.01354188
vt 0.1477771 0.014673
vt 0.14707 0.01385784
vt 0.1500474 0.0125005
vt 0.1502657 0.04066512
vt 0.1483534 0.04335447
vt 0.1473576 0.04298385
vt 0.1495886 0.03984626
vt 0.1490559 0.03004631
vt 0.1468895 0.03318962
vt 0.145947 0.03273325
vt 0.14834 0.02926121
vt 0.1212774 -0.02553659
vt 0.1193975 -0.02184312
vt 0.1184578 -0.02231855
vt 0.1204029 -0.02614001
vt 0.03382819 -0.086999
vt 0.03341175 -0.08276946
vt 0.03236831 -0.08301523
vt 0.03277081 -0.08710311
vt -0.0785097 -0.06051764
vt -0.07710454 -0.05661877
vt -0.07818045 -0.05649812
vt -0.07945257 -0.06002785
vt -0.1325092 0.005253439
vt -0.1304927 0.008495009
vt -0.1315328 0.008782549
vt -0.1332612 0.00600406
vt -0.1502657 0.04066512
vt -0.1483534 0.04335448
vt -0.1493491 0.0437251
vt -0.1509427 0.04148398
vt -0.1490559 0.03004631
vt -0.1475085 0.03229153
vt -0.1484509 0.03274791
vt -0.1497718 0.0308314
vt -0.1212774 -0.0255366
vt -0.1202397 -0.02349787
vt -0.1211794 -0.02302245
vt -0.1221519 -0.02493318
vt -0.03382821 -0.086999
vt -0.03361998 -0.08488423
vt -0.03466342 -0.08463845
vt -0.03488559 -0.08689488
vt 0.07850967 -0.06051765
vt 0.07773405 -0.05836554
vt 0.07665814 -0.05848619
vt 0.0775668 -0.06100743
vt 0.1325092 0.005253471
vt 0.1310689 0.007568878
vt 0.1300288 0.007281339
vt 0.1317572 0.004502851
vt 0.1483534 0.04335447
vt 0.1480419 0.04663969
vt 0.1469943 0.0468166
vt 0.1473576 0.04298385
vt 0.14135 0.03849305
vt 0.1409164 0.04228591
vt 0.1398701 0.04232639
vt 0.140349 0.03813688
vt 0.09866853 0.01263848
vt 0.09822915 0.01675947
vt 0.09718172 0.01665035
vt 0.09763633 0.01238654
vt 0.02582704 -0.009413959
vt 0.02554315 -0.005173449
vt 0.02449254 -0.005386451
vt 0.02476691 -0.00948493
vt -0.05627123 -0.003999268
vt -0.05629506 0.000145018
vt -0.05734669 -0.0001123255
vt -0.05732511 -0.003864238
vt -0.1192698 0.02288018
vt -0.1190668 0.02669234
vt -0.1201166 0.02644261
vt -0.1202905 0.02317504
vt -0.1483534 0.04335448
vt -0.1480419 0.04663969
vt -0.1490896 0.04646278
vt -0.1493491 0.0437251
vt -0.14135 0.03849305
vt -0.1410403 0.04120223
vt -0.1420867 0.04116175
vt -0.142351 0.03884922
vt -0.09866852 0.01263847
vt -0.09842599 0.01491319
vt -0.09947342 0.01502232
vt -0.09970072 0.01289041
vt -0.02582704 -0.009413959
vt -0.0256851 -0.007293704
vt -0.02673572 -0.007080703
vt -0.02688717 -0.009342986
vt 0.05627121 -0.00399927
vt 0.05628436 -0.001711702
vt 0.05523273 -0.001454361
vt 0.05521732 -0.0041343
vt 0.1192698 0.02288019
vt 0.1191248 0.02560316
vt 0.1180751 0.02585289
vt 0.118249 0.02258532
vt 0.1480419 0.04663969
vt 0.1494148 0.04964049
vt 0.148596 0.05031753
vt 0.1469943 0.0468166
vt 0.1394362 0.05514436
vt 0.1407163 0.0587409
vt 0.1397945 0.05923781
vt 0.1383806 0.05526515
vt 0.09290874 0.06794383
vt 0.09357922 0.07203358
vt 0.09254041 0.07220645
vt 0.09184669 0.06797497
vt 0.02060418 0.07209186
vt 0.0203343 0.07633328
vt 0.01928299 0.07612376
vt 0.01954383 0.07202439
vt -0.05664027 0.06341904
vt -0.05775297 0.06741123
vt -0.05869993 0.06688642
vt -0.05769258 0.06327219
vt -0.1178467 0.05076616
vt -0.1193481 0.05427606
vt -0.1201797 0.0535884
vt -0.1188927 0.05057991
vt -0.1480419 0.04663969
vt -0.1494148 0.04964048
vt -0.1502337 0.04896345
vt -0.1490896 0.04646278
vt -0.1394362 0.05514437
vt -0.1403505 0.05771333
vt -0.1412722 0.05721642
vt -0.1404918 0.05502358
vt -0.09290873 0.06794383
vt -0.09327883 0.0702013
vt -0.09431763 0.07002843
vt -0.09397078 0.06791269
vt -0.02060419 0.07209187
vt -0.02046925 0.07421258
vt -0.02152056 0.07442211
vt -0.02166454 0.07215934
vt 0.05664025 0.06341904
vt 0.05725444 0.06562264
vt 0.05630748 0.06614745
vt 0.05558795 0.06356587
vt 0.1178467 0.05076616
vt 0.1189192 0.05327323
vt 0.1180876 0.0539609
vt 0.1168007 0.05095241
vt 0.1494148 0.04964049
vt 0.1521042 0.05155281
vt 0.1517335 0.05254857
vt 0.148596 0.05031753
vt 0.1450556 0.06309016
vt 0.147852 0.065689
vt 0.1472639 0.06655543
vt 0.1441751 0.06368481
vt 0.1033892 0.1056427
vt 0.1052422 0.1093498
vt 0.1043014 0.1098229
vt 0.1023842 0.1059873
vt 0.01422793 0.1350665
vt 0.01388307 0.1393025
vt 0.01283563 0.1390744
vt 0.01316893 0.1349803
vt -0.07612868 0.1114329
vt -0.0784133 0.1148906
vt -0.0791534 0.1141005
vt -0.07708508 0.1109701
vt -0.1281924 0.07036587
vt -0.1311245 0.07281051
vt -0.1315529 0.07182012
vt -0.1290396 0.06972472
vt -0.1494148 0.04964048
vt -0.1521042 0.05155281
vt -0.1524748 0.05055705
vt -0.1502337 0.04896345
vt -0.1450556 0.06309018
vt -0.147053 0.06494649
vt -0.1476411 0.06408007
vt -0.1459361 0.06249554
vt -0.1033892 0.1056427
vt -0.104412 0.1076889
vt -0.1053529 0.1072158
vt -0.1043943 0.1052981
vt -0.01422793 0.1350665
vt -0.01405551 0.1371845
vt -0.01510295 0.1374126
vt -0.01528693 0.1351527
vt 0.07612865 0.1114329
vt 0.07738972 0.1133415
vt 0.07664962 0.1141317
vt 0.07517225 0.1118957
vt 0.1281924 0.07036585
vt 0.1302868 0.07211202
vt 0.1298584 0.07310241
vt 0.1273452 0.07100701
vt 0.1521042 0.05155281
vt 0.1553894 0.05186425
vt 0.1555663 0.05291192
vt 0.1517335 0.05254857
vt 0.153361 0.05029347
vt 0.1571081 0.05102342
vt 0.1570663 0.05206974
vt 0.1529273 0.05126345
vt 0.1383484 0.08493251
vt 0.1418449 0.08715733
vt 0.1412817 0.08804718
vt 0.137664 0.08574525
vt -0.003674859 0.1624482
vt -0.004427212 0.1666311
vt -0.005447735 0.1663029
vt -0.004720577 0.1622601
vt -0.1227814 0.1052236
vt -0.1265039 0.1070452
vt -0.1267411 0.1059888
vt -0.123371 0.1043396
vt -0.1450997 0.06919943
vt -0.1488659 0.06982391
vt -0.1487341 0.06875293
vt -0.145506 0.06821766
vt -0.1521042 0.05155281
vt -0.1553894 0.05186425
vt -0.1552125 0.05081658
vt -0.1524748 0.05055705
vt -0.153361 0.05029347
vt -0.1560375 0.05081487
vt -0.1560793 0.04976855
vt -0.1537946 0.04932349
vt -0.1383484 0.08493252
vt -0.1402784 0.08616059
vt -0.1408416 0.08527074
vt -0.1390327 0.08411978
vt 0.003674848 0.1624482
vt 0.004051025 0.1645396
vt 0.003030504 0.1648678
vt 0.002629126 0.1626363
vt 0.1227814 0.1052236
vt 0.1248362 0.1062291
vt 0.124599 0.1072854
vt 0.1221918 0.1061074
vt 0.1450997 0.0691994
vt 0.1477898 0.06964546
vt 0.1479216 0.07071644
vt 0.1446935 0.07018116
o group1437307951
g mesh1437307951
usemtl mat21
f 4/4/1 3/3/1 2/2/1 1/1/1
f 8/8/2 7/7/2 6/6/2 5/5/2
f 2/12/3 8/11/3 5/10/3 1/9/3
f 6/16/4 7/15/4 3/14/4 4/13/4
f 5/20/5 6/19/5 4/18/5 1/17/5
f 3/24/6 7/23/6 8/22/6 2/21/6
f 12/28/7 11/27/7 10/26/7 9/25/7
f 16/32/8 15/31/8 14/30/8 13/29/8
f 10/36/9 16/35/9 13/34/9 9/33/9
f 14/40/10 15/39/10 11/38/10 12/37/10
f 13/44/11 14/43/11 12/42/11 9/41/11
f 11/48/12 15/47/12 16/46/12 10/45/12
f 20/52/13 19/51/13 18/50/13 17/49/13
f 24/56/14 23/55/14 22/54/14 21/53/14
f 18/60/15 24/59/15 21/58/15 17/57/15
f 22/64/16 23/63/16 19/62/16 20/61/16
f 21/68/17 22/67/17 20/66/17 17/65/17
f 19/72/18 23/71/18 24/70/18 18/69/18
f 28/76/19 27/75/19 26/74/19 25/73/19
f 32/80/20 31/79/20 30/78/20 29/77/20
f 26/84/21 32/83/21 29/82/21 25/81/21
f 30/88/22 31/87/22 27/86/22 28/85/22
f 29/92/23 30/91/23 28/90/23 25/89/23
f 27/96/24 31/95/24 32/94/24 26/93/24
f 36/100/25 35/99/25 34/98/25 33/97/25
f 40/104/26 39/103/26 38/102/26 37/101/26
f 34/108/27 40/107/27 37/106/27 33/105/27
f 38/112/28 39/111/28 35/110/28 36/109/28
f 37/116/29 38/115/29 36/114/29 33/113/29
f 35/120/30 39/119/30 40/118/30 34/117/30
f 44/124/31 43/123/31 42/122/31 41/121/31
f 48/128/32 47/127/32 46/126/32 45/125/32
f 42/132/33 48/131/33 45/130/33 41/129/33
f 46/136/34 47/135/34 43/134/34 44/133/34
f 45/140/35 46/139/35 44/138/35 41/137/35
f 43/144/36 47/143/36 48/142/36 42/141/36
f 52/148/37 51/147/37 50/146/37 49/145/37
f 56/152/38 55/151/38 54/150/38 53/149/38
f 50/156/39 56/155/39 53/154/39 49/153/39
f 54/160/40 55/159/40 51/158/40 52/157/40
f 53/164/41 54/163/41 52/162/41 49/161/41
f 51/168/42 55/167/42 56/166/42 50/165/42
f 60/172/43 59/171/43 58/170/43 57/169/43
f 62/176/44 61/175/44 59/174/44 60/173/44
f 64/180/45 63/179/45 61/178/45 62/177/45
f 66/184/46 65/183/46 63/182/46 64/181/46
f 68/188/47 67/187/47 65/186/47 66/185/47
f 70/192/48 69/191/48 67/190/48 68/189/48
f 72/196/49 71/195/49 69/194/49 70/193/49
f 74/200/50 73/199/50 71/198/50 72/197/50
f 76/204/51 75/203/51 73/202/51 74/201/51
f 78/208/52 77/207/52 75/206/52 76/205/52
f 80/212/53 79/211/53 77/210/53 78/209/53
f 57/216/54 58/215/54 79/214/54 80/213/54
f 59/220/55 82/219/55 81/218/55 58/217/55
f 61/224/56 83/223/56 82/222/56 59/221/56
f 63/228/57 84/227/57 83/226/57 61/225/57
f 65/232/58 85/231/58 84/230/58 63/229/58
f 67/236/59 86/235/59 85/234/59 65/233/59
f 69/240/60 87/239/60 86/238/60 67/237/60
f 71/244/61 88/243/61 87/242/61 69/241/61
f 73/248/62 89/247/62 88/246/62 71/245/62
f 75/252/63 90/251/63 89/250/63 73/249/63
f 77/256/64 91/255/64 90/254/64 75/253/64
f 79/260/65 92/259/65 91/258/65 77/257/65
f 58/264/66 81/263/66 92/262/66 79/261/66
f 82/268/67 94/267/67 93/266/67 81/265/67
f 83/272/68 95/271/68 94/270/68 82/269/68
f 84/276/69 96/275/69 95/274/69 83/273/69
f 85/280/70 97/279/70 96/278/70 84/277/70
f 86/284/71 98/283/71 97/282/71 85/281/71
f 87/288/72 99/287/72 98/286/72 86/285/72
f 88/292/73 100/291/73 99/290/73 87/289/73
f 89/296/74 101/295/74 100/294/74 88/293/74
f 90/300/75 102/299/75 101/298/75 89/297/75
f 91/304/76 103/303/76 102/302/76 90/301/76
f 92/308/77 104/307/77 103/306/77 91/305/77
f 81/312/78 93/311/78 104/310/78 92/309/78
f 94/316/79 106/315/79 105/314/79 93/313/79
f 95/320/80 107/319/80 106/318/80 94/317/80
f 96/324/81 108/323/81 107/322/81 95/321/81
f 97/328/82 109/327/82 108/326/82 96/325/82
f 98/332/83 110/331/83 109/330/83 97/329/83
f 99/336/84 111/335/84 110/334/84 98/333/84
f 100/340/85 112/339/85 111/338/85 99/337/85
f 101/344/86 113/343/86 112/342/86 100/341/86
f 102/348/87 114/347/87 113/346/87 101/345/87
f 103/352/88 115/351/88 114/350/88 102/349/88
f 104/356/89 116/355/89 115/354/89 103/353/89
f 93/360/90 105/359/90 116/358/90 104/357/90
f 106/364/91 118/363/91 117/362/91 105/361/91
f 107/368/92 119/367/92 118/366/92 106/365/92
f 108/372/93 120/371/93 119/370/93 107/369/93
f 109/376/94 121/375/94 120/374/94 108/373/94
f 110/380/95 122/379/95 121/378/95 109/377/95
f 111/384/96 123/383/96 122/382/96 110/381/96
f 112/388/97 124/387/97 123/386/97 111/385/97
f 113/392/98 125/391/98 124/390/98 112/389/98
f 114/396/99 126/395/99 125/394/99 113/393/99
f 115/400/100 127/399/100 126/398/100 114/397/100
f 116/404/101 128/403/101 127/402/101 115/401/101
f 105/408/102 117/407/102 128/406/102 116/405/102
f 118/412/103 130/411/103 129/410/103 117/409/103
f 119/416/104 131/415/104 130/414/104 118/413/104
f 120/420/105 132/419/105 131/418/105 119/417/105
f 121/424/106 133/423/106 132/422/106 120/421/106
f 122/428/107 134/427/107 133/426/107 121/425/107
f 123/432/108 135/431/108 134/430/108 122/429/108
f 124/436/109 136/435/109 135/434/109 123/433/109
f 125/440/110 137/439/110 136/438/110 124/437/110
f 126/444/111 138/443/111 137/442/111 125/441/111
f 127/448/112 139/447/112 138/446/112 126/445/112
f 128/452/113 140/451/113 139/450/113 127/449/113
f 117/456/114 129/455/114 140/454/114 128/453/114
f 130/460/115 142/459/115 141/458/115 129/457/115
f 131/464/116 143/463/116 142/462/116 130/461/116
f 132/468/117 144/467/117 143/466/117 131/465/117
f 133/472/118 145/471/118 144/470/118 132/469/118
f 134/476/119 146/475/119 145/474/119 133/473/119
f 135/480/120 147/479/120 146/478/120 134/477/120
f 136/484/121 148/483/121 147/482/121 135/481/121
f 137/488/122 149/487/122 148/486/122 136/485/122
f 138/492/123 150/491/123 149/490/123 137/489/123
f 139/496/124 151/495/124 150/494/124 138/493/124
f 140/500/125 152/499/125 151/498/125 139/497/125
f 129/504/126 141/503/126 152/502/126 140/501/126
f 142/508/127 154/507/127 153/506/127 141/505/127
f 143/512/128 155/511/128 154/510/128 142/509/128
f 144/516/129 156/515/129 155/514/129 143/513/129
f 145/520/130 157/519/130 156/518/130 144/517/130
f 146/524/131 158/523/131 157/522/131 145/521/131
f 147/528/132 159/527/132 158/526/132 146/525/132
f 148/532/133 160/531/133 159/530/133 147/529/133
f 149/536/134 161/535/134 160/534/134 148/533/134
f 150/540/135 162/539/135 161/538/135 149/537/135
f 151/544/136 163/543/136 162/542/136 150/541/136
f 152/548/137 164/547/137 163/546/137 151/545/137
f 141/552/138 153/551/138 164/550/138 152/549/138
f 154/556/139 166/555/139 165/554/139 153/553/139
f 155/560/140 167/559/140 166/558/140 154/557/140
f 156/564/141 168/563/141 167/562/141 155/561/141
f 157/568/142 169/567/142 168/566/142 156/565/142
f 158/572/143 170/571/143 169/570/143 157/569/143
f 159/576/144 171/575/144 170/574/144 158/573/144
f 160/580/145 172/579/145 171/578/145 159/577/145
f 161/584/146 173/583/146 172/582/146 160/581/146
f 162/588/147 174/587/147 173/586/147 161/585/147
f 163/592/148 175/591/148 174/590/148 162/589/148
f 164/596/149 176/595/149 175/594/149 163/593/149
f 153/600/150 165/599/150 176/598/150 164/597/150
f 166/604/151 178/603/151 177/602/151 165/601/151
f 167/608/152 179/607/152 178/606/152 166/605/152
f 168/612/153 180/611/153 179/610/153 167/609/153
f 169/616/154 181/615/154 180/614/154 168/613/154
f 170/620/155 182/619/155 181/618/155 169/617/155
f 171/624/156 183/623/156 182/622/156 170/621/156
f 172/628/157 184/627/157 183/626/157 171/625/157
f 173/632/158 185/631/158 184/630/158 172/629/158
f 174/636/159 186/635/159 185/634/159 173/633/159
f 175/640/160 187/639/160 186/638/160 174/637/160
f 176/644/161 188/643/161 187/642/161 175/641/161
f 165/648/162 177/647/162 188/646/162 176/645/162
f 178/652/163 190/651/163 189/650/163 177/649/163
f 179/656/164 191/655/164 190/654/164 178/653/164
f 180/660/165 192/659/165 191/658/165 179/657/165
f 181/664/166 193/663/166 192/662/166 180/661/166
f 182/668/167 194/667/167 193/666/167 181/665/167
f 183/672/168 195/671/168 194/670/168 182/669/168
f 184/676/169 196/675/169 195/674/169 183/673/169
f 185/680/170 197/679/170 196/678/170 184/677/170
f 186/684/171 198/683/171 197/682/171 185/681/171
f 187/688/172 199/687/172 198/686/172 186/685/172
f 188/692/173 200/691/173 199/690/173 187/689/173
f 177/696/174 189/695/174 200/694/174 188/693/174
f 190/700/175 60/699/175 57/698/175 189/697/175
f 191/704/176 62/703/176 60/702/176 190/701/176
f 192/708/177 64/707/177 62/706/177 191/705/177
f 193/712/178 66/711/178 64/710/178 192/709/178
f 194/716/179 68/715/179 66/714/179 193/713/179
f 195/720/180 70/719/180 68/718/180 194/717/180
f 196/724/181 72/723/181 70/722/181 195/721/181
f 197/728/182 74/727/182 72/726/182 196/725/182
f 198/732/183 76/731/183 74/730/183 197/729/183
f 199/736/184 78/735/184 76/734/184 198/733/184
f 200/740/185 80/739/185 78/738/185 199/737/185
f 189/744/186 57/743/186 80/742/186 200/741/186
f 204/748/187 203/747/187 202/746/187 201/745/187
f 206/752/188 205/751/188 203/750/188 204/749/188
f 208/756/189 207/755/189 205/754/189 206/753/189
f 210/760/190 209/759/190 207/758/190 208/757/190
f 212/764/191 211/763/191 209/762/191 210/761/191
f 214/768/192 213/767/192 211/766/192 212/765/192
f 216/772/193 215/771/193 213/770/193 214/769/193
f 218/776/194 217/775/194 215/774/194 216/773/194
f 220/780/195 219/779/195 217/778/195 218/777/195
f 222/784/196 221/783/196 219/782/196 220/781/196
f 224/788/197 223/787/197 221/786/197 222/785/197
f 201/792/198 202/791/198 223/790/198 224/789/198
f 203/796/199 226/795/199 225/794/199 202/793/199
f 205/800/200 227/799/200 226/798/200 203/797/200
f 207/804/201 228/803/201 227/802/201 205/801/201
f 209/808/202 229/807/202 228/806/202 207/805/202
f 211/812/203 230/811/203 229/810/203 209/809/203
f 213/816/204 231/815/204 230/814/204 211/813/204
f 215/820/205 232/819/205 231/818/205 213/817/205
f 217/824/206 233/823/206 232/822/206 215/821/206
f 219/828/207 234/827/207 233/826/207 217/825/207
f 221/832/208 235/831/208 234/830/208 219/829/208
f 223/836/209 236/835/209 235/834/209 221/833/209
f 202/840/210 225/839/210 236/838/210 223/837/210
f 226/844/211 238/843/211 237/842/211 225/841/211
f 227/848/212 239/847/212 238/846/212 226/845/212
f 228/852/213 240/851/213 239/850/213 227/849/213
f 229/856/214 241/855/214 240/854/214 228/853/214
f 230/860/215 242/859/215 241/858/215 229/857/215
f 231/864/216 243/863/216 242/862/216 230/861/216
f 232/868/217 244/867/217 243/866/217 231/865/217
f 233/872/218 245/871/218 244/870/218 232/869/218
f 234/876/219 246/875/219 245/874/219 233/873/219
f 235/880/220 247/879/220 246/878/220 234/877/220
f 236/884/221 248/883/221 247/882/221 235/881/221
f 225/888/222 237/887/222 248/886/222 236/885/222
f 238/892/223 250/891/223 249/890/223 237/889/223
f 239/896/224 251/895/224 250/894/224 238/893/224
f 240/900/225 252/899/225 251/898/225 239/897/225
f 241/904/226 253/903/226 252/902/226 240/901/226
f 242/908/227 254/907/227 253/906/227 241/905/227
f 243/912/228 255/911/228 254/910/228 242/909/228
f 244/916/229 256/915/229 255/914/229 243/913/229
f 245/920/230 257/919/230 256/918/230 244/917/230
f 246/924/231 258/923/231 257/922/231 245/921/231
f 247/928/232 259/927/232 258/926/232 246/925/232
f 248/932/233 260/931/233 259/930/233 247/929/233
f 237/936/234 249/935/234 260/934/234 248/933/234
f 250/940/235 262/939/235 261/938/235 249/937/235
f 251/944/236 263/943/236 262/942/236 250/941/236
f 252/948/237 264/947/237 263/946/237 251/945/237
f 253/952/238 265/951/238 264/950/238 252/949/238
f 254/956/239 266/955/239 265/954/239 253/953/239
f 255/960/240 267/959/240 266/958/240 254/957/240
f 256/964/241 268/963/241 267/962/241 255/961/241
f 257/968/242 269/967/242 268/966/242 256/965/242
f 258/972/243 270/971/243 269/970/243 257/969/243
f 259/976/244 271/975/244 270/974/244 258/973/244
f 260/980/245 272/979/245 271/978/245 259/977/245
f 249/984/246 261/983/246 272/982/246 260/981/246
f 262/988/247 274/987/247 273/986/247 261/985/247
f 263/992/248 275/991/248 274/990/248 262/989/248
f 264/996/249 276/995/249 275/994/249 263/993/249
f 265/1000/250 277/999/250 276/998/250 264/997/250
f 266/1004/251 278/1003/251 277/1002/251 265/1001/251
f 267/1008/252 279/1007/252 278/1006/252 266/1005/252
f 268/1012/253 280/1011/253 279/1010/253 267/1009/253
f 269/1016/254 281/1015/254 280/1014/254 268/1013/254
f 270/1020/255 282/1019/255 281/1018/255 269/1017/255
f 271/1024/256 283/1023/256 282/1022/256 270/1021/256
f 272/1028/257 284/1027/257 283/1026/257 271/1025/257
f 261/1032/258 273/1031/258 284/1030/258 272/1029/258
f 274/1036/259 286/1035/259 285/1034/259 273/1033/259
f 275/1040/260 287/1039/260 286/1038/260 274/1037/260
f 276/1044/261 288/1043/261 287/1042/261 275/1041/261
f 277/1048/262 289/1047/262 288/1046/262 276/1045/262
f 278/1052/263 290/1051/263 289/1050/263 277/1049/263
f 279/1056/264 291/1055/264 290/1054/264 278/1053/264
f 280/1060/265 292/1059/265 291/1058/265 279/1057/265
f 281/1064/266 293/1063/266 292/1062/266 280/1061/266
f 282/1068/267 294/1067/267 293/1066/267 281/1065/267
f 283/1072/268 295/1071/268 294/1070/268 282/1069/268
f 284/1076/269 296/1075/269 295/1074/269 283/1073/269
f 273/1080/270 285/1079/270 296/1078/270 284/1077/270
f 286/1084/271 298/1083/271 297/1082/271 285/1081/271
f 287/1088/272 299/1087/272 298/1086/272 286/1085/272
f 288/1092/273 300/1091/273 299/1090/273 287/1089/273
f 289/1096/274 301/1095/274 300/1094/274 288/1093/274
f 290/1100/275 302/1099/275 301/1098/275 289/1097/275
f 291/1104/276 303/1103/276 302/1102/276 290/1101/276
f 292/1108/277 304/1107/277 303/1106/277 291/1105/277
f 293/1112/278 305/1111/278 304/1110/278 292/1109/278
f 294/1116/279 306/1115/279 305/1114/279 293/1113/279
f 295/1120/280 307/1119/280 306/1118/280 294/1117/280
f 296/1124/281 308/1123/281 307/1122/281 295/1121/281
f 285/1128/282 297/1127/282 308/1126/282 296/1125/282
f 298/1132/283 310/1131/283 309/1130/283 297/1129/283
f 299/1136/284 311/1135/284 310/1134/284 298/1133/284
f 300/1140/285 312/1139/285 311/1138/285 299/1137/285
f 301/1144/286 313/1143/286 312/1142/286 300/1141/286
f 302/1148/287 314/1147/287 313/1146/287 301/1145/287
f 303/1152/288 315/1151/288 314/1150/288 302/1149/288
f 304/1156/289 316/1155/289 315/1154/289 303/1153/289
f 305/1160/290 317/1159/290 316/1158/290 304/1157/290
f 306/1164/291 318/1163/291 317/1162/291 305/1161/291
f 307/1168/292 319/1167/292 318/1166/292 306/1165/292
f 308/1172/293 320/1171/293 319/1170/293 307/1169/293
f 297/1176/294 309/1175/294 320/1174/294 308/1173/294
f 310/1180/295 322/1179/295 321/1178/295 309/1177/295
f 311/1184/296 323/1183/296 322/1182/296 310/1181/296
f 312/1188/297 324/1187/297 323/1186/297 311/1185/297
f 313/1192/298 325/1191/298 324/1190/298 312/1189/298
f 314/1196/299 326/1195/299 325/1194/299 313/1193/299
f 315/1200/300 327/1199/300 326/1198/300 314/1197/300
f 316/1204/301 328/1203/301 327/1202/301 315/1201/301
f 317/1208/302 329/1207/302 328/1206/302 316/1205/302
f 318/1212/303 330/1211/303 329/1210/303 317/1209/303
f 319/1216/304 331/1215/304 330/1214/304 318/1213/304
f 320/1220/305 332/1219/305 331/1218/305 319/1217/305
f 309/1224/306 321/1223/306 332/1222/306 320/1221/306
f 322/1228/307 334/1227/307 333/1226/307 321/1225/307
f 323/1232/308 335/1231/308 334/1230/308 322/1229/308
f 324/1236/309 336/1235/309 335/1234/309 323/1233/309
f 325/1240/310 337/1239/310 336/1238/310 324/1237/310
f 326/1244/311 338/1243/311 337/1242/311 325/1241/311
f 327/1248/312 339/1247/312 338/1246/312 326/1245/312
f 328/1252/313 340/1251/313 339/1250/313 327/1249/313
f 329/1256/314 341/1255/314 340/1254/314 328/1253/314
f 330/1260/315 342/1259/315 341/1258/315 329/1257/315
f 331/1264/316 343/1263/316 342/1262/316 330/1261/316
f 332/1268/317 344/1267/317 343/1266/317 331/1265/317
f 321/1272/318 333/1271/318 344/1270/318 332/1269/318
f 334/1276/319 204/1275/319 201/1274/319 333/1273/319
f 335/1280/320 206/1279/320 204/1278/320 334/1277/320
f 336/1284/321 208/1283/321 206/1282/321 335/1281/321
f 337/1288/322 210/1287/322 208/1286/322 336/1285/322
f 338/1292/323 212/1291/323 210/1290/323 337/1289/323
f 339/1296/324 214/1295/324 212/1294/324 338/1293/324
f 340/1300/325 216/1299/325 214/1298/325 339/1297/325
f 341/1304/326 218/1303/326 216/1302/326 340/1301/326
f 342/1308/327 220/1307/327 218/1306/327 341/1305/327
f 343/1312/328 222/1311/328 220/1310/328 342/1309/328
f 344/1316/329 224/1315/329 222/1314/329 343/1313/329
f 333/1320/330 201/1319/330 224/1318/330 344/1317/330
